	{ "mmSDMA7_UCODE_ADDR", REG_MMIO, 0x0000, 1, &mmSDMA7_UCODE_ADDR[0], sizeof(mmSDMA7_UCODE_ADDR)/sizeof(mmSDMA7_UCODE_ADDR[0]), 0, 0 },
	{ "mmSDMA7_UCODE_DATA", REG_MMIO, 0x0001, 1, &mmSDMA7_UCODE_DATA[0], sizeof(mmSDMA7_UCODE_DATA)/sizeof(mmSDMA7_UCODE_DATA[0]), 0, 0 },
	{ "mmSDMA7_VM_CNTL", REG_MMIO, 0x0004, 1, &mmSDMA7_VM_CNTL[0], sizeof(mmSDMA7_VM_CNTL)/sizeof(mmSDMA7_VM_CNTL[0]), 0, 0 },
	{ "mmSDMA7_VM_CTX_LO", REG_MMIO, 0x0005, 1, &mmSDMA7_VM_CTX_LO[0], sizeof(mmSDMA7_VM_CTX_LO)/sizeof(mmSDMA7_VM_CTX_LO[0]), 0, 0 },
	{ "mmSDMA7_VM_CTX_HI", REG_MMIO, 0x0006, 1, &mmSDMA7_VM_CTX_HI[0], sizeof(mmSDMA7_VM_CTX_HI)/sizeof(mmSDMA7_VM_CTX_HI[0]), 0, 0 },
	{ "mmSDMA7_ACTIVE_FCN_ID", REG_MMIO, 0x0007, 1, &mmSDMA7_ACTIVE_FCN_ID[0], sizeof(mmSDMA7_ACTIVE_FCN_ID)/sizeof(mmSDMA7_ACTIVE_FCN_ID[0]), 0, 0 },
	{ "mmSDMA7_VM_CTX_CNTL", REG_MMIO, 0x0008, 1, &mmSDMA7_VM_CTX_CNTL[0], sizeof(mmSDMA7_VM_CTX_CNTL)/sizeof(mmSDMA7_VM_CTX_CNTL[0]), 0, 0 },
	{ "mmSDMA7_VIRT_RESET_REQ", REG_MMIO, 0x0009, 1, &mmSDMA7_VIRT_RESET_REQ[0], sizeof(mmSDMA7_VIRT_RESET_REQ)/sizeof(mmSDMA7_VIRT_RESET_REQ[0]), 0, 0 },
	{ "mmSDMA7_VF_ENABLE", REG_MMIO, 0x000a, 1, &mmSDMA7_VF_ENABLE[0], sizeof(mmSDMA7_VF_ENABLE)/sizeof(mmSDMA7_VF_ENABLE[0]), 0, 0 },
	{ "mmSDMA7_CONTEXT_REG_TYPE0", REG_MMIO, 0x000b, 1, &mmSDMA7_CONTEXT_REG_TYPE0[0], sizeof(mmSDMA7_CONTEXT_REG_TYPE0)/sizeof(mmSDMA7_CONTEXT_REG_TYPE0[0]), 0, 0 },
	{ "mmSDMA7_CONTEXT_REG_TYPE1", REG_MMIO, 0x000c, 1, &mmSDMA7_CONTEXT_REG_TYPE1[0], sizeof(mmSDMA7_CONTEXT_REG_TYPE1)/sizeof(mmSDMA7_CONTEXT_REG_TYPE1[0]), 0, 0 },
	{ "mmSDMA7_CONTEXT_REG_TYPE2", REG_MMIO, 0x000d, 1, &mmSDMA7_CONTEXT_REG_TYPE2[0], sizeof(mmSDMA7_CONTEXT_REG_TYPE2)/sizeof(mmSDMA7_CONTEXT_REG_TYPE2[0]), 0, 0 },
	{ "mmSDMA7_CONTEXT_REG_TYPE3", REG_MMIO, 0x000e, 1, &mmSDMA7_CONTEXT_REG_TYPE3[0], sizeof(mmSDMA7_CONTEXT_REG_TYPE3)/sizeof(mmSDMA7_CONTEXT_REG_TYPE3[0]), 0, 0 },
	{ "mmSDMA7_PUB_REG_TYPE0", REG_MMIO, 0x000f, 1, &mmSDMA7_PUB_REG_TYPE0[0], sizeof(mmSDMA7_PUB_REG_TYPE0)/sizeof(mmSDMA7_PUB_REG_TYPE0[0]), 0, 0 },
	{ "mmSDMA7_PUB_REG_TYPE1", REG_MMIO, 0x0010, 1, &mmSDMA7_PUB_REG_TYPE1[0], sizeof(mmSDMA7_PUB_REG_TYPE1)/sizeof(mmSDMA7_PUB_REG_TYPE1[0]), 0, 0 },
	{ "mmSDMA7_PUB_REG_TYPE2", REG_MMIO, 0x0011, 1, &mmSDMA7_PUB_REG_TYPE2[0], sizeof(mmSDMA7_PUB_REG_TYPE2)/sizeof(mmSDMA7_PUB_REG_TYPE2[0]), 0, 0 },
	{ "mmSDMA7_PUB_REG_TYPE3", REG_MMIO, 0x0012, 1, &mmSDMA7_PUB_REG_TYPE3[0], sizeof(mmSDMA7_PUB_REG_TYPE3)/sizeof(mmSDMA7_PUB_REG_TYPE3[0]), 0, 0 },
	{ "mmSDMA7_MMHUB_CNTL", REG_MMIO, 0x0013, 1, &mmSDMA7_MMHUB_CNTL[0], sizeof(mmSDMA7_MMHUB_CNTL)/sizeof(mmSDMA7_MMHUB_CNTL[0]), 0, 0 },
	{ "mmSDMA7_CONTEXT_GROUP_BOUNDARY", REG_MMIO, 0x0019, 1, &mmSDMA7_CONTEXT_GROUP_BOUNDARY[0], sizeof(mmSDMA7_CONTEXT_GROUP_BOUNDARY)/sizeof(mmSDMA7_CONTEXT_GROUP_BOUNDARY[0]), 0, 0 },
	{ "mmSDMA7_POWER_CNTL", REG_MMIO, 0x001a, 1, &mmSDMA7_POWER_CNTL[0], sizeof(mmSDMA7_POWER_CNTL)/sizeof(mmSDMA7_POWER_CNTL[0]), 0, 0 },
	{ "mmSDMA7_CLK_CTRL", REG_MMIO, 0x001b, 1, &mmSDMA7_CLK_CTRL[0], sizeof(mmSDMA7_CLK_CTRL)/sizeof(mmSDMA7_CLK_CTRL[0]), 0, 0 },
	{ "mmSDMA7_CNTL", REG_MMIO, 0x001c, 1, &mmSDMA7_CNTL[0], sizeof(mmSDMA7_CNTL)/sizeof(mmSDMA7_CNTL[0]), 0, 0 },
	{ "mmSDMA7_CHICKEN_BITS", REG_MMIO, 0x001d, 1, &mmSDMA7_CHICKEN_BITS[0], sizeof(mmSDMA7_CHICKEN_BITS)/sizeof(mmSDMA7_CHICKEN_BITS[0]), 0, 0 },
	{ "mmSDMA7_GB_ADDR_CONFIG", REG_MMIO, 0x001e, 1, &mmSDMA7_GB_ADDR_CONFIG[0], sizeof(mmSDMA7_GB_ADDR_CONFIG)/sizeof(mmSDMA7_GB_ADDR_CONFIG[0]), 0, 0 },
	{ "mmSDMA7_GB_ADDR_CONFIG_READ", REG_MMIO, 0x001f, 1, &mmSDMA7_GB_ADDR_CONFIG_READ[0], sizeof(mmSDMA7_GB_ADDR_CONFIG_READ)/sizeof(mmSDMA7_GB_ADDR_CONFIG_READ[0]), 0, 0 },
	{ "mmSDMA7_RB_RPTR_FETCH_HI", REG_MMIO, 0x0020, 1, &mmSDMA7_RB_RPTR_FETCH_HI[0], sizeof(mmSDMA7_RB_RPTR_FETCH_HI)/sizeof(mmSDMA7_RB_RPTR_FETCH_HI[0]), 0, 0 },
	{ "mmSDMA7_SEM_WAIT_FAIL_TIMER_CNTL", REG_MMIO, 0x0021, 1, &mmSDMA7_SEM_WAIT_FAIL_TIMER_CNTL[0], sizeof(mmSDMA7_SEM_WAIT_FAIL_TIMER_CNTL)/sizeof(mmSDMA7_SEM_WAIT_FAIL_TIMER_CNTL[0]), 0, 0 },
	{ "mmSDMA7_RB_RPTR_FETCH", REG_MMIO, 0x0022, 1, &mmSDMA7_RB_RPTR_FETCH[0], sizeof(mmSDMA7_RB_RPTR_FETCH)/sizeof(mmSDMA7_RB_RPTR_FETCH[0]), 0, 0 },
	{ "mmSDMA7_IB_OFFSET_FETCH", REG_MMIO, 0x0023, 1, &mmSDMA7_IB_OFFSET_FETCH[0], sizeof(mmSDMA7_IB_OFFSET_FETCH)/sizeof(mmSDMA7_IB_OFFSET_FETCH[0]), 0, 0 },
	{ "mmSDMA7_PROGRAM", REG_MMIO, 0x0024, 1, &mmSDMA7_PROGRAM[0], sizeof(mmSDMA7_PROGRAM)/sizeof(mmSDMA7_PROGRAM[0]), 0, 0 },
	{ "mmSDMA7_STATUS_REG", REG_MMIO, 0x0025, 1, &mmSDMA7_STATUS_REG[0], sizeof(mmSDMA7_STATUS_REG)/sizeof(mmSDMA7_STATUS_REG[0]), 0, 0 },
	{ "mmSDMA7_STATUS1_REG", REG_MMIO, 0x0026, 1, &mmSDMA7_STATUS1_REG[0], sizeof(mmSDMA7_STATUS1_REG)/sizeof(mmSDMA7_STATUS1_REG[0]), 0, 0 },
	{ "mmSDMA7_RD_BURST_CNTL", REG_MMIO, 0x0027, 1, &mmSDMA7_RD_BURST_CNTL[0], sizeof(mmSDMA7_RD_BURST_CNTL)/sizeof(mmSDMA7_RD_BURST_CNTL[0]), 0, 0 },
	{ "mmSDMA7_HBM_PAGE_CONFIG", REG_MMIO, 0x0028, 1, &mmSDMA7_HBM_PAGE_CONFIG[0], sizeof(mmSDMA7_HBM_PAGE_CONFIG)/sizeof(mmSDMA7_HBM_PAGE_CONFIG[0]), 0, 0 },
	{ "mmSDMA7_UCODE_CHECKSUM", REG_MMIO, 0x0029, 1, &mmSDMA7_UCODE_CHECKSUM[0], sizeof(mmSDMA7_UCODE_CHECKSUM)/sizeof(mmSDMA7_UCODE_CHECKSUM[0]), 0, 0 },
	{ "mmSDMA7_F32_CNTL", REG_MMIO, 0x002a, 1, &mmSDMA7_F32_CNTL[0], sizeof(mmSDMA7_F32_CNTL)/sizeof(mmSDMA7_F32_CNTL[0]), 0, 0 },
	{ "mmSDMA7_FREEZE", REG_MMIO, 0x002b, 1, &mmSDMA7_FREEZE[0], sizeof(mmSDMA7_FREEZE)/sizeof(mmSDMA7_FREEZE[0]), 0, 0 },
	{ "mmSDMA7_PHASE0_QUANTUM", REG_MMIO, 0x002c, 1, &mmSDMA7_PHASE0_QUANTUM[0], sizeof(mmSDMA7_PHASE0_QUANTUM)/sizeof(mmSDMA7_PHASE0_QUANTUM[0]), 0, 0 },
	{ "mmSDMA7_PHASE1_QUANTUM", REG_MMIO, 0x002d, 1, &mmSDMA7_PHASE1_QUANTUM[0], sizeof(mmSDMA7_PHASE1_QUANTUM)/sizeof(mmSDMA7_PHASE1_QUANTUM[0]), 0, 0 },
	{ "mmSDMA7_EDC_CONFIG", REG_MMIO, 0x0032, 1, &mmSDMA7_EDC_CONFIG[0], sizeof(mmSDMA7_EDC_CONFIG)/sizeof(mmSDMA7_EDC_CONFIG[0]), 0, 0 },
	{ "mmSDMA7_BA_THRESHOLD", REG_MMIO, 0x0033, 1, &mmSDMA7_BA_THRESHOLD[0], sizeof(mmSDMA7_BA_THRESHOLD)/sizeof(mmSDMA7_BA_THRESHOLD[0]), 0, 0 },
	{ "mmSDMA7_ID", REG_MMIO, 0x0034, 1, &mmSDMA7_ID[0], sizeof(mmSDMA7_ID)/sizeof(mmSDMA7_ID[0]), 0, 0 },
	{ "mmSDMA7_VERSION", REG_MMIO, 0x0035, 1, &mmSDMA7_VERSION[0], sizeof(mmSDMA7_VERSION)/sizeof(mmSDMA7_VERSION[0]), 0, 0 },
	{ "mmSDMA7_EDC_COUNTER", REG_MMIO, 0x0036, 1, &mmSDMA7_EDC_COUNTER[0], sizeof(mmSDMA7_EDC_COUNTER)/sizeof(mmSDMA7_EDC_COUNTER[0]), 0, 0 },
	{ "mmSDMA7_EDC_COUNTER_CLEAR", REG_MMIO, 0x0037, 1, &mmSDMA7_EDC_COUNTER_CLEAR[0], sizeof(mmSDMA7_EDC_COUNTER_CLEAR)/sizeof(mmSDMA7_EDC_COUNTER_CLEAR[0]), 0, 0 },
	{ "mmSDMA7_STATUS2_REG", REG_MMIO, 0x0038, 1, &mmSDMA7_STATUS2_REG[0], sizeof(mmSDMA7_STATUS2_REG)/sizeof(mmSDMA7_STATUS2_REG[0]), 0, 0 },
	{ "mmSDMA7_ATOMIC_CNTL", REG_MMIO, 0x0039, 1, &mmSDMA7_ATOMIC_CNTL[0], sizeof(mmSDMA7_ATOMIC_CNTL)/sizeof(mmSDMA7_ATOMIC_CNTL[0]), 0, 0 },
	{ "mmSDMA7_ATOMIC_PREOP_LO", REG_MMIO, 0x003a, 1, &mmSDMA7_ATOMIC_PREOP_LO[0], sizeof(mmSDMA7_ATOMIC_PREOP_LO)/sizeof(mmSDMA7_ATOMIC_PREOP_LO[0]), 0, 0 },
	{ "mmSDMA7_ATOMIC_PREOP_HI", REG_MMIO, 0x003b, 1, &mmSDMA7_ATOMIC_PREOP_HI[0], sizeof(mmSDMA7_ATOMIC_PREOP_HI)/sizeof(mmSDMA7_ATOMIC_PREOP_HI[0]), 0, 0 },
	{ "mmSDMA7_UTCL1_CNTL", REG_MMIO, 0x003c, 1, &mmSDMA7_UTCL1_CNTL[0], sizeof(mmSDMA7_UTCL1_CNTL)/sizeof(mmSDMA7_UTCL1_CNTL[0]), 0, 0 },
	{ "mmSDMA7_UTCL1_WATERMK", REG_MMIO, 0x003d, 1, &mmSDMA7_UTCL1_WATERMK[0], sizeof(mmSDMA7_UTCL1_WATERMK)/sizeof(mmSDMA7_UTCL1_WATERMK[0]), 0, 0 },
	{ "mmSDMA7_UTCL1_RD_STATUS", REG_MMIO, 0x003e, 1, &mmSDMA7_UTCL1_RD_STATUS[0], sizeof(mmSDMA7_UTCL1_RD_STATUS)/sizeof(mmSDMA7_UTCL1_RD_STATUS[0]), 0, 0 },
	{ "mmSDMA7_UTCL1_WR_STATUS", REG_MMIO, 0x003f, 1, &mmSDMA7_UTCL1_WR_STATUS[0], sizeof(mmSDMA7_UTCL1_WR_STATUS)/sizeof(mmSDMA7_UTCL1_WR_STATUS[0]), 0, 0 },
	{ "mmSDMA7_UTCL1_INV0", REG_MMIO, 0x0040, 1, &mmSDMA7_UTCL1_INV0[0], sizeof(mmSDMA7_UTCL1_INV0)/sizeof(mmSDMA7_UTCL1_INV0[0]), 0, 0 },
	{ "mmSDMA7_UTCL1_INV1", REG_MMIO, 0x0041, 1, &mmSDMA7_UTCL1_INV1[0], sizeof(mmSDMA7_UTCL1_INV1)/sizeof(mmSDMA7_UTCL1_INV1[0]), 0, 0 },
	{ "mmSDMA7_UTCL1_INV2", REG_MMIO, 0x0042, 1, &mmSDMA7_UTCL1_INV2[0], sizeof(mmSDMA7_UTCL1_INV2)/sizeof(mmSDMA7_UTCL1_INV2[0]), 0, 0 },
	{ "mmSDMA7_UTCL1_RD_XNACK0", REG_MMIO, 0x0043, 1, &mmSDMA7_UTCL1_RD_XNACK0[0], sizeof(mmSDMA7_UTCL1_RD_XNACK0)/sizeof(mmSDMA7_UTCL1_RD_XNACK0[0]), 0, 0 },
	{ "mmSDMA7_UTCL1_RD_XNACK1", REG_MMIO, 0x0044, 1, &mmSDMA7_UTCL1_RD_XNACK1[0], sizeof(mmSDMA7_UTCL1_RD_XNACK1)/sizeof(mmSDMA7_UTCL1_RD_XNACK1[0]), 0, 0 },
	{ "mmSDMA7_UTCL1_WR_XNACK0", REG_MMIO, 0x0045, 1, &mmSDMA7_UTCL1_WR_XNACK0[0], sizeof(mmSDMA7_UTCL1_WR_XNACK0)/sizeof(mmSDMA7_UTCL1_WR_XNACK0[0]), 0, 0 },
	{ "mmSDMA7_UTCL1_WR_XNACK1", REG_MMIO, 0x0046, 1, &mmSDMA7_UTCL1_WR_XNACK1[0], sizeof(mmSDMA7_UTCL1_WR_XNACK1)/sizeof(mmSDMA7_UTCL1_WR_XNACK1[0]), 0, 0 },
	{ "mmSDMA7_UTCL1_TIMEOUT", REG_MMIO, 0x0047, 1, &mmSDMA7_UTCL1_TIMEOUT[0], sizeof(mmSDMA7_UTCL1_TIMEOUT)/sizeof(mmSDMA7_UTCL1_TIMEOUT[0]), 0, 0 },
	{ "mmSDMA7_UTCL1_PAGE", REG_MMIO, 0x0048, 1, &mmSDMA7_UTCL1_PAGE[0], sizeof(mmSDMA7_UTCL1_PAGE)/sizeof(mmSDMA7_UTCL1_PAGE[0]), 0, 0 },
	{ "mmSDMA7_POWER_CNTL_IDLE", REG_MMIO, 0x0049, 1, &mmSDMA7_POWER_CNTL_IDLE[0], sizeof(mmSDMA7_POWER_CNTL_IDLE)/sizeof(mmSDMA7_POWER_CNTL_IDLE[0]), 0, 0 },
	{ "mmSDMA7_RELAX_ORDERING_LUT", REG_MMIO, 0x004a, 1, &mmSDMA7_RELAX_ORDERING_LUT[0], sizeof(mmSDMA7_RELAX_ORDERING_LUT)/sizeof(mmSDMA7_RELAX_ORDERING_LUT[0]), 0, 0 },
	{ "mmSDMA7_CHICKEN_BITS_2", REG_MMIO, 0x004b, 1, &mmSDMA7_CHICKEN_BITS_2[0], sizeof(mmSDMA7_CHICKEN_BITS_2)/sizeof(mmSDMA7_CHICKEN_BITS_2[0]), 0, 0 },
	{ "mmSDMA7_STATUS3_REG", REG_MMIO, 0x004c, 1, &mmSDMA7_STATUS3_REG[0], sizeof(mmSDMA7_STATUS3_REG)/sizeof(mmSDMA7_STATUS3_REG[0]), 0, 0 },
	{ "mmSDMA7_PHYSICAL_ADDR_LO", REG_MMIO, 0x004d, 1, &mmSDMA7_PHYSICAL_ADDR_LO[0], sizeof(mmSDMA7_PHYSICAL_ADDR_LO)/sizeof(mmSDMA7_PHYSICAL_ADDR_LO[0]), 0, 0 },
	{ "mmSDMA7_PHYSICAL_ADDR_HI", REG_MMIO, 0x004e, 1, &mmSDMA7_PHYSICAL_ADDR_HI[0], sizeof(mmSDMA7_PHYSICAL_ADDR_HI)/sizeof(mmSDMA7_PHYSICAL_ADDR_HI[0]), 0, 0 },
	{ "mmSDMA7_PHASE2_QUANTUM", REG_MMIO, 0x004f, 1, &mmSDMA7_PHASE2_QUANTUM[0], sizeof(mmSDMA7_PHASE2_QUANTUM)/sizeof(mmSDMA7_PHASE2_QUANTUM[0]), 0, 0 },
	{ "mmSDMA7_ERROR_LOG", REG_MMIO, 0x0050, 1, &mmSDMA7_ERROR_LOG[0], sizeof(mmSDMA7_ERROR_LOG)/sizeof(mmSDMA7_ERROR_LOG[0]), 0, 0 },
	{ "mmSDMA7_PUB_DUMMY_REG0", REG_MMIO, 0x0051, 1, &mmSDMA7_PUB_DUMMY_REG0[0], sizeof(mmSDMA7_PUB_DUMMY_REG0)/sizeof(mmSDMA7_PUB_DUMMY_REG0[0]), 0, 0 },
	{ "mmSDMA7_PUB_DUMMY_REG1", REG_MMIO, 0x0052, 1, &mmSDMA7_PUB_DUMMY_REG1[0], sizeof(mmSDMA7_PUB_DUMMY_REG1)/sizeof(mmSDMA7_PUB_DUMMY_REG1[0]), 0, 0 },
	{ "mmSDMA7_PUB_DUMMY_REG2", REG_MMIO, 0x0053, 1, &mmSDMA7_PUB_DUMMY_REG2[0], sizeof(mmSDMA7_PUB_DUMMY_REG2)/sizeof(mmSDMA7_PUB_DUMMY_REG2[0]), 0, 0 },
	{ "mmSDMA7_PUB_DUMMY_REG3", REG_MMIO, 0x0054, 1, &mmSDMA7_PUB_DUMMY_REG3[0], sizeof(mmSDMA7_PUB_DUMMY_REG3)/sizeof(mmSDMA7_PUB_DUMMY_REG3[0]), 0, 0 },
	{ "mmSDMA7_F32_COUNTER", REG_MMIO, 0x0055, 1, &mmSDMA7_F32_COUNTER[0], sizeof(mmSDMA7_F32_COUNTER)/sizeof(mmSDMA7_F32_COUNTER[0]), 0, 0 },
	{ "mmSDMA7_UNBREAKABLE", REG_MMIO, 0x0056, 1, &mmSDMA7_UNBREAKABLE[0], sizeof(mmSDMA7_UNBREAKABLE)/sizeof(mmSDMA7_UNBREAKABLE[0]), 0, 0 },
	{ "mmSDMA7_PERFMON_CNTL", REG_MMIO, 0x0057, 1, &mmSDMA7_PERFMON_CNTL[0], sizeof(mmSDMA7_PERFMON_CNTL)/sizeof(mmSDMA7_PERFMON_CNTL[0]), 0, 0 },
	{ "mmSDMA7_PERFCOUNTER0_RESULT", REG_MMIO, 0x0058, 1, &mmSDMA7_PERFCOUNTER0_RESULT[0], sizeof(mmSDMA7_PERFCOUNTER0_RESULT)/sizeof(mmSDMA7_PERFCOUNTER0_RESULT[0]), 0, 0 },
	{ "mmSDMA7_PERFCOUNTER1_RESULT", REG_MMIO, 0x0059, 1, &mmSDMA7_PERFCOUNTER1_RESULT[0], sizeof(mmSDMA7_PERFCOUNTER1_RESULT)/sizeof(mmSDMA7_PERFCOUNTER1_RESULT[0]), 0, 0 },
	{ "mmSDMA7_PERFCOUNTER_TAG_DELAY_RANGE", REG_MMIO, 0x005a, 1, &mmSDMA7_PERFCOUNTER_TAG_DELAY_RANGE[0], sizeof(mmSDMA7_PERFCOUNTER_TAG_DELAY_RANGE)/sizeof(mmSDMA7_PERFCOUNTER_TAG_DELAY_RANGE[0]), 0, 0 },
	{ "mmSDMA7_CRD_CNTL", REG_MMIO, 0x005b, 1, &mmSDMA7_CRD_CNTL[0], sizeof(mmSDMA7_CRD_CNTL)/sizeof(mmSDMA7_CRD_CNTL[0]), 0, 0 },
	{ "mmSDMA7_GPU_IOV_VIOLATION_LOG", REG_MMIO, 0x005d, 1, &mmSDMA7_GPU_IOV_VIOLATION_LOG[0], sizeof(mmSDMA7_GPU_IOV_VIOLATION_LOG)/sizeof(mmSDMA7_GPU_IOV_VIOLATION_LOG[0]), 0, 0 },
	{ "mmSDMA7_ULV_CNTL", REG_MMIO, 0x005e, 1, &mmSDMA7_ULV_CNTL[0], sizeof(mmSDMA7_ULV_CNTL)/sizeof(mmSDMA7_ULV_CNTL[0]), 0, 0 },
	{ "mmSDMA7_EA_DBIT_ADDR_DATA", REG_MMIO, 0x0060, 1, &mmSDMA7_EA_DBIT_ADDR_DATA[0], sizeof(mmSDMA7_EA_DBIT_ADDR_DATA)/sizeof(mmSDMA7_EA_DBIT_ADDR_DATA[0]), 0, 0 },
	{ "mmSDMA7_EA_DBIT_ADDR_INDEX", REG_MMIO, 0x0061, 1, &mmSDMA7_EA_DBIT_ADDR_INDEX[0], sizeof(mmSDMA7_EA_DBIT_ADDR_INDEX)/sizeof(mmSDMA7_EA_DBIT_ADDR_INDEX[0]), 0, 0 },
	{ "mmSDMA7_GPU_IOV_VIOLATION_LOG2", REG_MMIO, 0x0062, 1, &mmSDMA7_GPU_IOV_VIOLATION_LOG2[0], sizeof(mmSDMA7_GPU_IOV_VIOLATION_LOG2)/sizeof(mmSDMA7_GPU_IOV_VIOLATION_LOG2[0]), 0, 0 },
	{ "mmSDMA7_GFX_RB_CNTL", REG_MMIO, 0x0080, 1, &mmSDMA7_GFX_RB_CNTL[0], sizeof(mmSDMA7_GFX_RB_CNTL)/sizeof(mmSDMA7_GFX_RB_CNTL[0]), 0, 0 },
	{ "mmSDMA7_GFX_RB_BASE", REG_MMIO, 0x0081, 1, &mmSDMA7_GFX_RB_BASE[0], sizeof(mmSDMA7_GFX_RB_BASE)/sizeof(mmSDMA7_GFX_RB_BASE[0]), 0, 0 },
	{ "mmSDMA7_GFX_RB_BASE_HI", REG_MMIO, 0x0082, 1, &mmSDMA7_GFX_RB_BASE_HI[0], sizeof(mmSDMA7_GFX_RB_BASE_HI)/sizeof(mmSDMA7_GFX_RB_BASE_HI[0]), 0, 0 },
	{ "mmSDMA7_GFX_RB_RPTR", REG_MMIO, 0x0083, 1, &mmSDMA7_GFX_RB_RPTR[0], sizeof(mmSDMA7_GFX_RB_RPTR)/sizeof(mmSDMA7_GFX_RB_RPTR[0]), 0, 0 },
	{ "mmSDMA7_GFX_RB_RPTR_HI", REG_MMIO, 0x0084, 1, &mmSDMA7_GFX_RB_RPTR_HI[0], sizeof(mmSDMA7_GFX_RB_RPTR_HI)/sizeof(mmSDMA7_GFX_RB_RPTR_HI[0]), 0, 0 },
	{ "mmSDMA7_GFX_RB_WPTR", REG_MMIO, 0x0085, 1, &mmSDMA7_GFX_RB_WPTR[0], sizeof(mmSDMA7_GFX_RB_WPTR)/sizeof(mmSDMA7_GFX_RB_WPTR[0]), 0, 0 },
	{ "mmSDMA7_GFX_RB_WPTR_HI", REG_MMIO, 0x0086, 1, &mmSDMA7_GFX_RB_WPTR_HI[0], sizeof(mmSDMA7_GFX_RB_WPTR_HI)/sizeof(mmSDMA7_GFX_RB_WPTR_HI[0]), 0, 0 },
	{ "mmSDMA7_GFX_RB_WPTR_POLL_CNTL", REG_MMIO, 0x0087, 1, &mmSDMA7_GFX_RB_WPTR_POLL_CNTL[0], sizeof(mmSDMA7_GFX_RB_WPTR_POLL_CNTL)/sizeof(mmSDMA7_GFX_RB_WPTR_POLL_CNTL[0]), 0, 0 },
	{ "mmSDMA7_GFX_RB_RPTR_ADDR_HI", REG_MMIO, 0x0088, 1, &mmSDMA7_GFX_RB_RPTR_ADDR_HI[0], sizeof(mmSDMA7_GFX_RB_RPTR_ADDR_HI)/sizeof(mmSDMA7_GFX_RB_RPTR_ADDR_HI[0]), 0, 0 },
	{ "mmSDMA7_GFX_RB_RPTR_ADDR_LO", REG_MMIO, 0x0089, 1, &mmSDMA7_GFX_RB_RPTR_ADDR_LO[0], sizeof(mmSDMA7_GFX_RB_RPTR_ADDR_LO)/sizeof(mmSDMA7_GFX_RB_RPTR_ADDR_LO[0]), 0, 0 },
	{ "mmSDMA7_GFX_IB_CNTL", REG_MMIO, 0x008a, 1, &mmSDMA7_GFX_IB_CNTL[0], sizeof(mmSDMA7_GFX_IB_CNTL)/sizeof(mmSDMA7_GFX_IB_CNTL[0]), 0, 0 },
	{ "mmSDMA7_GFX_IB_RPTR", REG_MMIO, 0x008b, 1, &mmSDMA7_GFX_IB_RPTR[0], sizeof(mmSDMA7_GFX_IB_RPTR)/sizeof(mmSDMA7_GFX_IB_RPTR[0]), 0, 0 },
	{ "mmSDMA7_GFX_IB_OFFSET", REG_MMIO, 0x008c, 1, &mmSDMA7_GFX_IB_OFFSET[0], sizeof(mmSDMA7_GFX_IB_OFFSET)/sizeof(mmSDMA7_GFX_IB_OFFSET[0]), 0, 0 },
	{ "mmSDMA7_GFX_IB_BASE_LO", REG_MMIO, 0x008d, 1, &mmSDMA7_GFX_IB_BASE_LO[0], sizeof(mmSDMA7_GFX_IB_BASE_LO)/sizeof(mmSDMA7_GFX_IB_BASE_LO[0]), 0, 0 },
	{ "mmSDMA7_GFX_IB_BASE_HI", REG_MMIO, 0x008e, 1, &mmSDMA7_GFX_IB_BASE_HI[0], sizeof(mmSDMA7_GFX_IB_BASE_HI)/sizeof(mmSDMA7_GFX_IB_BASE_HI[0]), 0, 0 },
	{ "mmSDMA7_GFX_IB_SIZE", REG_MMIO, 0x008f, 1, &mmSDMA7_GFX_IB_SIZE[0], sizeof(mmSDMA7_GFX_IB_SIZE)/sizeof(mmSDMA7_GFX_IB_SIZE[0]), 0, 0 },
	{ "mmSDMA7_GFX_SKIP_CNTL", REG_MMIO, 0x0090, 1, &mmSDMA7_GFX_SKIP_CNTL[0], sizeof(mmSDMA7_GFX_SKIP_CNTL)/sizeof(mmSDMA7_GFX_SKIP_CNTL[0]), 0, 0 },
	{ "mmSDMA7_GFX_CONTEXT_STATUS", REG_MMIO, 0x0091, 1, &mmSDMA7_GFX_CONTEXT_STATUS[0], sizeof(mmSDMA7_GFX_CONTEXT_STATUS)/sizeof(mmSDMA7_GFX_CONTEXT_STATUS[0]), 0, 0 },
	{ "mmSDMA7_GFX_DOORBELL", REG_MMIO, 0x0092, 1, &mmSDMA7_GFX_DOORBELL[0], sizeof(mmSDMA7_GFX_DOORBELL)/sizeof(mmSDMA7_GFX_DOORBELL[0]), 0, 0 },
	{ "mmSDMA7_GFX_CONTEXT_CNTL", REG_MMIO, 0x0093, 1, &mmSDMA7_GFX_CONTEXT_CNTL[0], sizeof(mmSDMA7_GFX_CONTEXT_CNTL)/sizeof(mmSDMA7_GFX_CONTEXT_CNTL[0]), 0, 0 },
	{ "mmSDMA7_GFX_STATUS", REG_MMIO, 0x00a8, 1, &mmSDMA7_GFX_STATUS[0], sizeof(mmSDMA7_GFX_STATUS)/sizeof(mmSDMA7_GFX_STATUS[0]), 0, 0 },
	{ "mmSDMA7_GFX_DOORBELL_LOG", REG_MMIO, 0x00a9, 1, &mmSDMA7_GFX_DOORBELL_LOG[0], sizeof(mmSDMA7_GFX_DOORBELL_LOG)/sizeof(mmSDMA7_GFX_DOORBELL_LOG[0]), 0, 0 },
	{ "mmSDMA7_GFX_WATERMARK", REG_MMIO, 0x00aa, 1, &mmSDMA7_GFX_WATERMARK[0], sizeof(mmSDMA7_GFX_WATERMARK)/sizeof(mmSDMA7_GFX_WATERMARK[0]), 0, 0 },
	{ "mmSDMA7_GFX_DOORBELL_OFFSET", REG_MMIO, 0x00ab, 1, &mmSDMA7_GFX_DOORBELL_OFFSET[0], sizeof(mmSDMA7_GFX_DOORBELL_OFFSET)/sizeof(mmSDMA7_GFX_DOORBELL_OFFSET[0]), 0, 0 },
	{ "mmSDMA7_GFX_CSA_ADDR_LO", REG_MMIO, 0x00ac, 1, &mmSDMA7_GFX_CSA_ADDR_LO[0], sizeof(mmSDMA7_GFX_CSA_ADDR_LO)/sizeof(mmSDMA7_GFX_CSA_ADDR_LO[0]), 0, 0 },
	{ "mmSDMA7_GFX_CSA_ADDR_HI", REG_MMIO, 0x00ad, 1, &mmSDMA7_GFX_CSA_ADDR_HI[0], sizeof(mmSDMA7_GFX_CSA_ADDR_HI)/sizeof(mmSDMA7_GFX_CSA_ADDR_HI[0]), 0, 0 },
	{ "mmSDMA7_GFX_IB_SUB_REMAIN", REG_MMIO, 0x00af, 1, &mmSDMA7_GFX_IB_SUB_REMAIN[0], sizeof(mmSDMA7_GFX_IB_SUB_REMAIN)/sizeof(mmSDMA7_GFX_IB_SUB_REMAIN[0]), 0, 0 },
	{ "mmSDMA7_GFX_PREEMPT", REG_MMIO, 0x00b0, 1, &mmSDMA7_GFX_PREEMPT[0], sizeof(mmSDMA7_GFX_PREEMPT)/sizeof(mmSDMA7_GFX_PREEMPT[0]), 0, 0 },
	{ "mmSDMA7_GFX_DUMMY_REG", REG_MMIO, 0x00b1, 1, &mmSDMA7_GFX_DUMMY_REG[0], sizeof(mmSDMA7_GFX_DUMMY_REG)/sizeof(mmSDMA7_GFX_DUMMY_REG[0]), 0, 0 },
	{ "mmSDMA7_GFX_RB_WPTR_POLL_ADDR_HI", REG_MMIO, 0x00b2, 1, &mmSDMA7_GFX_RB_WPTR_POLL_ADDR_HI[0], sizeof(mmSDMA7_GFX_RB_WPTR_POLL_ADDR_HI)/sizeof(mmSDMA7_GFX_RB_WPTR_POLL_ADDR_HI[0]), 0, 0 },
	{ "mmSDMA7_GFX_RB_WPTR_POLL_ADDR_LO", REG_MMIO, 0x00b3, 1, &mmSDMA7_GFX_RB_WPTR_POLL_ADDR_LO[0], sizeof(mmSDMA7_GFX_RB_WPTR_POLL_ADDR_LO)/sizeof(mmSDMA7_GFX_RB_WPTR_POLL_ADDR_LO[0]), 0, 0 },
	{ "mmSDMA7_GFX_RB_AQL_CNTL", REG_MMIO, 0x00b4, 1, &mmSDMA7_GFX_RB_AQL_CNTL[0], sizeof(mmSDMA7_GFX_RB_AQL_CNTL)/sizeof(mmSDMA7_GFX_RB_AQL_CNTL[0]), 0, 0 },
	{ "mmSDMA7_GFX_MINOR_PTR_UPDATE", REG_MMIO, 0x00b5, 1, &mmSDMA7_GFX_MINOR_PTR_UPDATE[0], sizeof(mmSDMA7_GFX_MINOR_PTR_UPDATE)/sizeof(mmSDMA7_GFX_MINOR_PTR_UPDATE[0]), 0, 0 },
	{ "mmSDMA7_GFX_MIDCMD_DATA0", REG_MMIO, 0x00c0, 1, &mmSDMA7_GFX_MIDCMD_DATA0[0], sizeof(mmSDMA7_GFX_MIDCMD_DATA0)/sizeof(mmSDMA7_GFX_MIDCMD_DATA0[0]), 0, 0 },
	{ "mmSDMA7_GFX_MIDCMD_DATA1", REG_MMIO, 0x00c1, 1, &mmSDMA7_GFX_MIDCMD_DATA1[0], sizeof(mmSDMA7_GFX_MIDCMD_DATA1)/sizeof(mmSDMA7_GFX_MIDCMD_DATA1[0]), 0, 0 },
	{ "mmSDMA7_GFX_MIDCMD_DATA2", REG_MMIO, 0x00c2, 1, &mmSDMA7_GFX_MIDCMD_DATA2[0], sizeof(mmSDMA7_GFX_MIDCMD_DATA2)/sizeof(mmSDMA7_GFX_MIDCMD_DATA2[0]), 0, 0 },
	{ "mmSDMA7_GFX_MIDCMD_DATA3", REG_MMIO, 0x00c3, 1, &mmSDMA7_GFX_MIDCMD_DATA3[0], sizeof(mmSDMA7_GFX_MIDCMD_DATA3)/sizeof(mmSDMA7_GFX_MIDCMD_DATA3[0]), 0, 0 },
	{ "mmSDMA7_GFX_MIDCMD_DATA4", REG_MMIO, 0x00c4, 1, &mmSDMA7_GFX_MIDCMD_DATA4[0], sizeof(mmSDMA7_GFX_MIDCMD_DATA4)/sizeof(mmSDMA7_GFX_MIDCMD_DATA4[0]), 0, 0 },
	{ "mmSDMA7_GFX_MIDCMD_DATA5", REG_MMIO, 0x00c5, 1, &mmSDMA7_GFX_MIDCMD_DATA5[0], sizeof(mmSDMA7_GFX_MIDCMD_DATA5)/sizeof(mmSDMA7_GFX_MIDCMD_DATA5[0]), 0, 0 },
	{ "mmSDMA7_GFX_MIDCMD_DATA6", REG_MMIO, 0x00c6, 1, &mmSDMA7_GFX_MIDCMD_DATA6[0], sizeof(mmSDMA7_GFX_MIDCMD_DATA6)/sizeof(mmSDMA7_GFX_MIDCMD_DATA6[0]), 0, 0 },
	{ "mmSDMA7_GFX_MIDCMD_DATA7", REG_MMIO, 0x00c7, 1, &mmSDMA7_GFX_MIDCMD_DATA7[0], sizeof(mmSDMA7_GFX_MIDCMD_DATA7)/sizeof(mmSDMA7_GFX_MIDCMD_DATA7[0]), 0, 0 },
	{ "mmSDMA7_GFX_MIDCMD_DATA8", REG_MMIO, 0x00c8, 1, &mmSDMA7_GFX_MIDCMD_DATA8[0], sizeof(mmSDMA7_GFX_MIDCMD_DATA8)/sizeof(mmSDMA7_GFX_MIDCMD_DATA8[0]), 0, 0 },
	{ "mmSDMA7_GFX_MIDCMD_CNTL", REG_MMIO, 0x00c9, 1, &mmSDMA7_GFX_MIDCMD_CNTL[0], sizeof(mmSDMA7_GFX_MIDCMD_CNTL)/sizeof(mmSDMA7_GFX_MIDCMD_CNTL[0]), 0, 0 },
	{ "mmSDMA7_PAGE_RB_CNTL", REG_MMIO, 0x00d8, 1, &mmSDMA7_PAGE_RB_CNTL[0], sizeof(mmSDMA7_PAGE_RB_CNTL)/sizeof(mmSDMA7_PAGE_RB_CNTL[0]), 0, 0 },
	{ "mmSDMA7_PAGE_RB_BASE", REG_MMIO, 0x00d9, 1, &mmSDMA7_PAGE_RB_BASE[0], sizeof(mmSDMA7_PAGE_RB_BASE)/sizeof(mmSDMA7_PAGE_RB_BASE[0]), 0, 0 },
	{ "mmSDMA7_PAGE_RB_BASE_HI", REG_MMIO, 0x00da, 1, &mmSDMA7_PAGE_RB_BASE_HI[0], sizeof(mmSDMA7_PAGE_RB_BASE_HI)/sizeof(mmSDMA7_PAGE_RB_BASE_HI[0]), 0, 0 },
	{ "mmSDMA7_PAGE_RB_RPTR", REG_MMIO, 0x00db, 1, &mmSDMA7_PAGE_RB_RPTR[0], sizeof(mmSDMA7_PAGE_RB_RPTR)/sizeof(mmSDMA7_PAGE_RB_RPTR[0]), 0, 0 },
	{ "mmSDMA7_PAGE_RB_RPTR_HI", REG_MMIO, 0x00dc, 1, &mmSDMA7_PAGE_RB_RPTR_HI[0], sizeof(mmSDMA7_PAGE_RB_RPTR_HI)/sizeof(mmSDMA7_PAGE_RB_RPTR_HI[0]), 0, 0 },
	{ "mmSDMA7_PAGE_RB_WPTR", REG_MMIO, 0x00dd, 1, &mmSDMA7_PAGE_RB_WPTR[0], sizeof(mmSDMA7_PAGE_RB_WPTR)/sizeof(mmSDMA7_PAGE_RB_WPTR[0]), 0, 0 },
	{ "mmSDMA7_PAGE_RB_WPTR_HI", REG_MMIO, 0x00de, 1, &mmSDMA7_PAGE_RB_WPTR_HI[0], sizeof(mmSDMA7_PAGE_RB_WPTR_HI)/sizeof(mmSDMA7_PAGE_RB_WPTR_HI[0]), 0, 0 },
	{ "mmSDMA7_PAGE_RB_WPTR_POLL_CNTL", REG_MMIO, 0x00df, 1, &mmSDMA7_PAGE_RB_WPTR_POLL_CNTL[0], sizeof(mmSDMA7_PAGE_RB_WPTR_POLL_CNTL)/sizeof(mmSDMA7_PAGE_RB_WPTR_POLL_CNTL[0]), 0, 0 },
	{ "mmSDMA7_PAGE_RB_RPTR_ADDR_HI", REG_MMIO, 0x00e0, 1, &mmSDMA7_PAGE_RB_RPTR_ADDR_HI[0], sizeof(mmSDMA7_PAGE_RB_RPTR_ADDR_HI)/sizeof(mmSDMA7_PAGE_RB_RPTR_ADDR_HI[0]), 0, 0 },
	{ "mmSDMA7_PAGE_RB_RPTR_ADDR_LO", REG_MMIO, 0x00e1, 1, &mmSDMA7_PAGE_RB_RPTR_ADDR_LO[0], sizeof(mmSDMA7_PAGE_RB_RPTR_ADDR_LO)/sizeof(mmSDMA7_PAGE_RB_RPTR_ADDR_LO[0]), 0, 0 },
	{ "mmSDMA7_PAGE_IB_CNTL", REG_MMIO, 0x00e2, 1, &mmSDMA7_PAGE_IB_CNTL[0], sizeof(mmSDMA7_PAGE_IB_CNTL)/sizeof(mmSDMA7_PAGE_IB_CNTL[0]), 0, 0 },
	{ "mmSDMA7_PAGE_IB_RPTR", REG_MMIO, 0x00e3, 1, &mmSDMA7_PAGE_IB_RPTR[0], sizeof(mmSDMA7_PAGE_IB_RPTR)/sizeof(mmSDMA7_PAGE_IB_RPTR[0]), 0, 0 },
	{ "mmSDMA7_PAGE_IB_OFFSET", REG_MMIO, 0x00e4, 1, &mmSDMA7_PAGE_IB_OFFSET[0], sizeof(mmSDMA7_PAGE_IB_OFFSET)/sizeof(mmSDMA7_PAGE_IB_OFFSET[0]), 0, 0 },
	{ "mmSDMA7_PAGE_IB_BASE_LO", REG_MMIO, 0x00e5, 1, &mmSDMA7_PAGE_IB_BASE_LO[0], sizeof(mmSDMA7_PAGE_IB_BASE_LO)/sizeof(mmSDMA7_PAGE_IB_BASE_LO[0]), 0, 0 },
	{ "mmSDMA7_PAGE_IB_BASE_HI", REG_MMIO, 0x00e6, 1, &mmSDMA7_PAGE_IB_BASE_HI[0], sizeof(mmSDMA7_PAGE_IB_BASE_HI)/sizeof(mmSDMA7_PAGE_IB_BASE_HI[0]), 0, 0 },
	{ "mmSDMA7_PAGE_IB_SIZE", REG_MMIO, 0x00e7, 1, &mmSDMA7_PAGE_IB_SIZE[0], sizeof(mmSDMA7_PAGE_IB_SIZE)/sizeof(mmSDMA7_PAGE_IB_SIZE[0]), 0, 0 },
	{ "mmSDMA7_PAGE_SKIP_CNTL", REG_MMIO, 0x00e8, 1, &mmSDMA7_PAGE_SKIP_CNTL[0], sizeof(mmSDMA7_PAGE_SKIP_CNTL)/sizeof(mmSDMA7_PAGE_SKIP_CNTL[0]), 0, 0 },
	{ "mmSDMA7_PAGE_CONTEXT_STATUS", REG_MMIO, 0x00e9, 1, &mmSDMA7_PAGE_CONTEXT_STATUS[0], sizeof(mmSDMA7_PAGE_CONTEXT_STATUS)/sizeof(mmSDMA7_PAGE_CONTEXT_STATUS[0]), 0, 0 },
	{ "mmSDMA7_PAGE_DOORBELL", REG_MMIO, 0x00ea, 1, &mmSDMA7_PAGE_DOORBELL[0], sizeof(mmSDMA7_PAGE_DOORBELL)/sizeof(mmSDMA7_PAGE_DOORBELL[0]), 0, 0 },
	{ "mmSDMA7_PAGE_STATUS", REG_MMIO, 0x0100, 1, &mmSDMA7_PAGE_STATUS[0], sizeof(mmSDMA7_PAGE_STATUS)/sizeof(mmSDMA7_PAGE_STATUS[0]), 0, 0 },
	{ "mmSDMA7_PAGE_DOORBELL_LOG", REG_MMIO, 0x0101, 1, &mmSDMA7_PAGE_DOORBELL_LOG[0], sizeof(mmSDMA7_PAGE_DOORBELL_LOG)/sizeof(mmSDMA7_PAGE_DOORBELL_LOG[0]), 0, 0 },
	{ "mmSDMA7_PAGE_WATERMARK", REG_MMIO, 0x0102, 1, &mmSDMA7_PAGE_WATERMARK[0], sizeof(mmSDMA7_PAGE_WATERMARK)/sizeof(mmSDMA7_PAGE_WATERMARK[0]), 0, 0 },
	{ "mmSDMA7_PAGE_DOORBELL_OFFSET", REG_MMIO, 0x0103, 1, &mmSDMA7_PAGE_DOORBELL_OFFSET[0], sizeof(mmSDMA7_PAGE_DOORBELL_OFFSET)/sizeof(mmSDMA7_PAGE_DOORBELL_OFFSET[0]), 0, 0 },
	{ "mmSDMA7_PAGE_CSA_ADDR_LO", REG_MMIO, 0x0104, 1, &mmSDMA7_PAGE_CSA_ADDR_LO[0], sizeof(mmSDMA7_PAGE_CSA_ADDR_LO)/sizeof(mmSDMA7_PAGE_CSA_ADDR_LO[0]), 0, 0 },
	{ "mmSDMA7_PAGE_CSA_ADDR_HI", REG_MMIO, 0x0105, 1, &mmSDMA7_PAGE_CSA_ADDR_HI[0], sizeof(mmSDMA7_PAGE_CSA_ADDR_HI)/sizeof(mmSDMA7_PAGE_CSA_ADDR_HI[0]), 0, 0 },
	{ "mmSDMA7_PAGE_IB_SUB_REMAIN", REG_MMIO, 0x0107, 1, &mmSDMA7_PAGE_IB_SUB_REMAIN[0], sizeof(mmSDMA7_PAGE_IB_SUB_REMAIN)/sizeof(mmSDMA7_PAGE_IB_SUB_REMAIN[0]), 0, 0 },
	{ "mmSDMA7_PAGE_PREEMPT", REG_MMIO, 0x0108, 1, &mmSDMA7_PAGE_PREEMPT[0], sizeof(mmSDMA7_PAGE_PREEMPT)/sizeof(mmSDMA7_PAGE_PREEMPT[0]), 0, 0 },
	{ "mmSDMA7_PAGE_DUMMY_REG", REG_MMIO, 0x0109, 1, &mmSDMA7_PAGE_DUMMY_REG[0], sizeof(mmSDMA7_PAGE_DUMMY_REG)/sizeof(mmSDMA7_PAGE_DUMMY_REG[0]), 0, 0 },
	{ "mmSDMA7_PAGE_RB_WPTR_POLL_ADDR_HI", REG_MMIO, 0x010a, 1, &mmSDMA7_PAGE_RB_WPTR_POLL_ADDR_HI[0], sizeof(mmSDMA7_PAGE_RB_WPTR_POLL_ADDR_HI)/sizeof(mmSDMA7_PAGE_RB_WPTR_POLL_ADDR_HI[0]), 0, 0 },
	{ "mmSDMA7_PAGE_RB_WPTR_POLL_ADDR_LO", REG_MMIO, 0x010b, 1, &mmSDMA7_PAGE_RB_WPTR_POLL_ADDR_LO[0], sizeof(mmSDMA7_PAGE_RB_WPTR_POLL_ADDR_LO)/sizeof(mmSDMA7_PAGE_RB_WPTR_POLL_ADDR_LO[0]), 0, 0 },
	{ "mmSDMA7_PAGE_RB_AQL_CNTL", REG_MMIO, 0x010c, 1, &mmSDMA7_PAGE_RB_AQL_CNTL[0], sizeof(mmSDMA7_PAGE_RB_AQL_CNTL)/sizeof(mmSDMA7_PAGE_RB_AQL_CNTL[0]), 0, 0 },
	{ "mmSDMA7_PAGE_MINOR_PTR_UPDATE", REG_MMIO, 0x010d, 1, &mmSDMA7_PAGE_MINOR_PTR_UPDATE[0], sizeof(mmSDMA7_PAGE_MINOR_PTR_UPDATE)/sizeof(mmSDMA7_PAGE_MINOR_PTR_UPDATE[0]), 0, 0 },
	{ "mmSDMA7_PAGE_MIDCMD_DATA0", REG_MMIO, 0x0118, 1, &mmSDMA7_PAGE_MIDCMD_DATA0[0], sizeof(mmSDMA7_PAGE_MIDCMD_DATA0)/sizeof(mmSDMA7_PAGE_MIDCMD_DATA0[0]), 0, 0 },
	{ "mmSDMA7_PAGE_MIDCMD_DATA1", REG_MMIO, 0x0119, 1, &mmSDMA7_PAGE_MIDCMD_DATA1[0], sizeof(mmSDMA7_PAGE_MIDCMD_DATA1)/sizeof(mmSDMA7_PAGE_MIDCMD_DATA1[0]), 0, 0 },
	{ "mmSDMA7_PAGE_MIDCMD_DATA2", REG_MMIO, 0x011a, 1, &mmSDMA7_PAGE_MIDCMD_DATA2[0], sizeof(mmSDMA7_PAGE_MIDCMD_DATA2)/sizeof(mmSDMA7_PAGE_MIDCMD_DATA2[0]), 0, 0 },
	{ "mmSDMA7_PAGE_MIDCMD_DATA3", REG_MMIO, 0x011b, 1, &mmSDMA7_PAGE_MIDCMD_DATA3[0], sizeof(mmSDMA7_PAGE_MIDCMD_DATA3)/sizeof(mmSDMA7_PAGE_MIDCMD_DATA3[0]), 0, 0 },
	{ "mmSDMA7_PAGE_MIDCMD_DATA4", REG_MMIO, 0x011c, 1, &mmSDMA7_PAGE_MIDCMD_DATA4[0], sizeof(mmSDMA7_PAGE_MIDCMD_DATA4)/sizeof(mmSDMA7_PAGE_MIDCMD_DATA4[0]), 0, 0 },
	{ "mmSDMA7_PAGE_MIDCMD_DATA5", REG_MMIO, 0x011d, 1, &mmSDMA7_PAGE_MIDCMD_DATA5[0], sizeof(mmSDMA7_PAGE_MIDCMD_DATA5)/sizeof(mmSDMA7_PAGE_MIDCMD_DATA5[0]), 0, 0 },
	{ "mmSDMA7_PAGE_MIDCMD_DATA6", REG_MMIO, 0x011e, 1, &mmSDMA7_PAGE_MIDCMD_DATA6[0], sizeof(mmSDMA7_PAGE_MIDCMD_DATA6)/sizeof(mmSDMA7_PAGE_MIDCMD_DATA6[0]), 0, 0 },
	{ "mmSDMA7_PAGE_MIDCMD_DATA7", REG_MMIO, 0x011f, 1, &mmSDMA7_PAGE_MIDCMD_DATA7[0], sizeof(mmSDMA7_PAGE_MIDCMD_DATA7)/sizeof(mmSDMA7_PAGE_MIDCMD_DATA7[0]), 0, 0 },
	{ "mmSDMA7_PAGE_MIDCMD_DATA8", REG_MMIO, 0x0120, 1, &mmSDMA7_PAGE_MIDCMD_DATA8[0], sizeof(mmSDMA7_PAGE_MIDCMD_DATA8)/sizeof(mmSDMA7_PAGE_MIDCMD_DATA8[0]), 0, 0 },
	{ "mmSDMA7_PAGE_MIDCMD_CNTL", REG_MMIO, 0x0121, 1, &mmSDMA7_PAGE_MIDCMD_CNTL[0], sizeof(mmSDMA7_PAGE_MIDCMD_CNTL)/sizeof(mmSDMA7_PAGE_MIDCMD_CNTL[0]), 0, 0 },
	{ "mmSDMA7_RLC0_RB_CNTL", REG_MMIO, 0x0130, 1, &mmSDMA7_RLC0_RB_CNTL[0], sizeof(mmSDMA7_RLC0_RB_CNTL)/sizeof(mmSDMA7_RLC0_RB_CNTL[0]), 0, 0 },
	{ "mmSDMA7_RLC0_RB_BASE", REG_MMIO, 0x0131, 1, &mmSDMA7_RLC0_RB_BASE[0], sizeof(mmSDMA7_RLC0_RB_BASE)/sizeof(mmSDMA7_RLC0_RB_BASE[0]), 0, 0 },
	{ "mmSDMA7_RLC0_RB_BASE_HI", REG_MMIO, 0x0132, 1, &mmSDMA7_RLC0_RB_BASE_HI[0], sizeof(mmSDMA7_RLC0_RB_BASE_HI)/sizeof(mmSDMA7_RLC0_RB_BASE_HI[0]), 0, 0 },
	{ "mmSDMA7_RLC0_RB_RPTR", REG_MMIO, 0x0133, 1, &mmSDMA7_RLC0_RB_RPTR[0], sizeof(mmSDMA7_RLC0_RB_RPTR)/sizeof(mmSDMA7_RLC0_RB_RPTR[0]), 0, 0 },
	{ "mmSDMA7_RLC0_RB_RPTR_HI", REG_MMIO, 0x0134, 1, &mmSDMA7_RLC0_RB_RPTR_HI[0], sizeof(mmSDMA7_RLC0_RB_RPTR_HI)/sizeof(mmSDMA7_RLC0_RB_RPTR_HI[0]), 0, 0 },
	{ "mmSDMA7_RLC0_RB_WPTR", REG_MMIO, 0x0135, 1, &mmSDMA7_RLC0_RB_WPTR[0], sizeof(mmSDMA7_RLC0_RB_WPTR)/sizeof(mmSDMA7_RLC0_RB_WPTR[0]), 0, 0 },
	{ "mmSDMA7_RLC0_RB_WPTR_HI", REG_MMIO, 0x0136, 1, &mmSDMA7_RLC0_RB_WPTR_HI[0], sizeof(mmSDMA7_RLC0_RB_WPTR_HI)/sizeof(mmSDMA7_RLC0_RB_WPTR_HI[0]), 0, 0 },
	{ "mmSDMA7_RLC0_RB_WPTR_POLL_CNTL", REG_MMIO, 0x0137, 1, &mmSDMA7_RLC0_RB_WPTR_POLL_CNTL[0], sizeof(mmSDMA7_RLC0_RB_WPTR_POLL_CNTL)/sizeof(mmSDMA7_RLC0_RB_WPTR_POLL_CNTL[0]), 0, 0 },
	{ "mmSDMA7_RLC0_RB_RPTR_ADDR_HI", REG_MMIO, 0x0138, 1, &mmSDMA7_RLC0_RB_RPTR_ADDR_HI[0], sizeof(mmSDMA7_RLC0_RB_RPTR_ADDR_HI)/sizeof(mmSDMA7_RLC0_RB_RPTR_ADDR_HI[0]), 0, 0 },
	{ "mmSDMA7_RLC0_RB_RPTR_ADDR_LO", REG_MMIO, 0x0139, 1, &mmSDMA7_RLC0_RB_RPTR_ADDR_LO[0], sizeof(mmSDMA7_RLC0_RB_RPTR_ADDR_LO)/sizeof(mmSDMA7_RLC0_RB_RPTR_ADDR_LO[0]), 0, 0 },
	{ "mmSDMA7_RLC0_IB_CNTL", REG_MMIO, 0x013a, 1, &mmSDMA7_RLC0_IB_CNTL[0], sizeof(mmSDMA7_RLC0_IB_CNTL)/sizeof(mmSDMA7_RLC0_IB_CNTL[0]), 0, 0 },
	{ "mmSDMA7_RLC0_IB_RPTR", REG_MMIO, 0x013b, 1, &mmSDMA7_RLC0_IB_RPTR[0], sizeof(mmSDMA7_RLC0_IB_RPTR)/sizeof(mmSDMA7_RLC0_IB_RPTR[0]), 0, 0 },
	{ "mmSDMA7_RLC0_IB_OFFSET", REG_MMIO, 0x013c, 1, &mmSDMA7_RLC0_IB_OFFSET[0], sizeof(mmSDMA7_RLC0_IB_OFFSET)/sizeof(mmSDMA7_RLC0_IB_OFFSET[0]), 0, 0 },
	{ "mmSDMA7_RLC0_IB_BASE_LO", REG_MMIO, 0x013d, 1, &mmSDMA7_RLC0_IB_BASE_LO[0], sizeof(mmSDMA7_RLC0_IB_BASE_LO)/sizeof(mmSDMA7_RLC0_IB_BASE_LO[0]), 0, 0 },
	{ "mmSDMA7_RLC0_IB_BASE_HI", REG_MMIO, 0x013e, 1, &mmSDMA7_RLC0_IB_BASE_HI[0], sizeof(mmSDMA7_RLC0_IB_BASE_HI)/sizeof(mmSDMA7_RLC0_IB_BASE_HI[0]), 0, 0 },
	{ "mmSDMA7_RLC0_IB_SIZE", REG_MMIO, 0x013f, 1, &mmSDMA7_RLC0_IB_SIZE[0], sizeof(mmSDMA7_RLC0_IB_SIZE)/sizeof(mmSDMA7_RLC0_IB_SIZE[0]), 0, 0 },
	{ "mmSDMA7_RLC0_SKIP_CNTL", REG_MMIO, 0x0140, 1, &mmSDMA7_RLC0_SKIP_CNTL[0], sizeof(mmSDMA7_RLC0_SKIP_CNTL)/sizeof(mmSDMA7_RLC0_SKIP_CNTL[0]), 0, 0 },
	{ "mmSDMA7_RLC0_CONTEXT_STATUS", REG_MMIO, 0x0141, 1, &mmSDMA7_RLC0_CONTEXT_STATUS[0], sizeof(mmSDMA7_RLC0_CONTEXT_STATUS)/sizeof(mmSDMA7_RLC0_CONTEXT_STATUS[0]), 0, 0 },
	{ "mmSDMA7_RLC0_DOORBELL", REG_MMIO, 0x0142, 1, &mmSDMA7_RLC0_DOORBELL[0], sizeof(mmSDMA7_RLC0_DOORBELL)/sizeof(mmSDMA7_RLC0_DOORBELL[0]), 0, 0 },
	{ "mmSDMA7_RLC0_STATUS", REG_MMIO, 0x0158, 1, &mmSDMA7_RLC0_STATUS[0], sizeof(mmSDMA7_RLC0_STATUS)/sizeof(mmSDMA7_RLC0_STATUS[0]), 0, 0 },
	{ "mmSDMA7_RLC0_DOORBELL_LOG", REG_MMIO, 0x0159, 1, &mmSDMA7_RLC0_DOORBELL_LOG[0], sizeof(mmSDMA7_RLC0_DOORBELL_LOG)/sizeof(mmSDMA7_RLC0_DOORBELL_LOG[0]), 0, 0 },
	{ "mmSDMA7_RLC0_WATERMARK", REG_MMIO, 0x015a, 1, &mmSDMA7_RLC0_WATERMARK[0], sizeof(mmSDMA7_RLC0_WATERMARK)/sizeof(mmSDMA7_RLC0_WATERMARK[0]), 0, 0 },
	{ "mmSDMA7_RLC0_DOORBELL_OFFSET", REG_MMIO, 0x015b, 1, &mmSDMA7_RLC0_DOORBELL_OFFSET[0], sizeof(mmSDMA7_RLC0_DOORBELL_OFFSET)/sizeof(mmSDMA7_RLC0_DOORBELL_OFFSET[0]), 0, 0 },
	{ "mmSDMA7_RLC0_CSA_ADDR_LO", REG_MMIO, 0x015c, 1, &mmSDMA7_RLC0_CSA_ADDR_LO[0], sizeof(mmSDMA7_RLC0_CSA_ADDR_LO)/sizeof(mmSDMA7_RLC0_CSA_ADDR_LO[0]), 0, 0 },
	{ "mmSDMA7_RLC0_CSA_ADDR_HI", REG_MMIO, 0x015d, 1, &mmSDMA7_RLC0_CSA_ADDR_HI[0], sizeof(mmSDMA7_RLC0_CSA_ADDR_HI)/sizeof(mmSDMA7_RLC0_CSA_ADDR_HI[0]), 0, 0 },
	{ "mmSDMA7_RLC0_IB_SUB_REMAIN", REG_MMIO, 0x015f, 1, &mmSDMA7_RLC0_IB_SUB_REMAIN[0], sizeof(mmSDMA7_RLC0_IB_SUB_REMAIN)/sizeof(mmSDMA7_RLC0_IB_SUB_REMAIN[0]), 0, 0 },
	{ "mmSDMA7_RLC0_PREEMPT", REG_MMIO, 0x0160, 1, &mmSDMA7_RLC0_PREEMPT[0], sizeof(mmSDMA7_RLC0_PREEMPT)/sizeof(mmSDMA7_RLC0_PREEMPT[0]), 0, 0 },
	{ "mmSDMA7_RLC0_DUMMY_REG", REG_MMIO, 0x0161, 1, &mmSDMA7_RLC0_DUMMY_REG[0], sizeof(mmSDMA7_RLC0_DUMMY_REG)/sizeof(mmSDMA7_RLC0_DUMMY_REG[0]), 0, 0 },
	{ "mmSDMA7_RLC0_RB_WPTR_POLL_ADDR_HI", REG_MMIO, 0x0162, 1, &mmSDMA7_RLC0_RB_WPTR_POLL_ADDR_HI[0], sizeof(mmSDMA7_RLC0_RB_WPTR_POLL_ADDR_HI)/sizeof(mmSDMA7_RLC0_RB_WPTR_POLL_ADDR_HI[0]), 0, 0 },
	{ "mmSDMA7_RLC0_RB_WPTR_POLL_ADDR_LO", REG_MMIO, 0x0163, 1, &mmSDMA7_RLC0_RB_WPTR_POLL_ADDR_LO[0], sizeof(mmSDMA7_RLC0_RB_WPTR_POLL_ADDR_LO)/sizeof(mmSDMA7_RLC0_RB_WPTR_POLL_ADDR_LO[0]), 0, 0 },
	{ "mmSDMA7_RLC0_RB_AQL_CNTL", REG_MMIO, 0x0164, 1, &mmSDMA7_RLC0_RB_AQL_CNTL[0], sizeof(mmSDMA7_RLC0_RB_AQL_CNTL)/sizeof(mmSDMA7_RLC0_RB_AQL_CNTL[0]), 0, 0 },
	{ "mmSDMA7_RLC0_MINOR_PTR_UPDATE", REG_MMIO, 0x0165, 1, &mmSDMA7_RLC0_MINOR_PTR_UPDATE[0], sizeof(mmSDMA7_RLC0_MINOR_PTR_UPDATE)/sizeof(mmSDMA7_RLC0_MINOR_PTR_UPDATE[0]), 0, 0 },
	{ "mmSDMA7_RLC0_MIDCMD_DATA0", REG_MMIO, 0x0170, 1, &mmSDMA7_RLC0_MIDCMD_DATA0[0], sizeof(mmSDMA7_RLC0_MIDCMD_DATA0)/sizeof(mmSDMA7_RLC0_MIDCMD_DATA0[0]), 0, 0 },
	{ "mmSDMA7_RLC0_MIDCMD_DATA1", REG_MMIO, 0x0171, 1, &mmSDMA7_RLC0_MIDCMD_DATA1[0], sizeof(mmSDMA7_RLC0_MIDCMD_DATA1)/sizeof(mmSDMA7_RLC0_MIDCMD_DATA1[0]), 0, 0 },
	{ "mmSDMA7_RLC0_MIDCMD_DATA2", REG_MMIO, 0x0172, 1, &mmSDMA7_RLC0_MIDCMD_DATA2[0], sizeof(mmSDMA7_RLC0_MIDCMD_DATA2)/sizeof(mmSDMA7_RLC0_MIDCMD_DATA2[0]), 0, 0 },
	{ "mmSDMA7_RLC0_MIDCMD_DATA3", REG_MMIO, 0x0173, 1, &mmSDMA7_RLC0_MIDCMD_DATA3[0], sizeof(mmSDMA7_RLC0_MIDCMD_DATA3)/sizeof(mmSDMA7_RLC0_MIDCMD_DATA3[0]), 0, 0 },
	{ "mmSDMA7_RLC0_MIDCMD_DATA4", REG_MMIO, 0x0174, 1, &mmSDMA7_RLC0_MIDCMD_DATA4[0], sizeof(mmSDMA7_RLC0_MIDCMD_DATA4)/sizeof(mmSDMA7_RLC0_MIDCMD_DATA4[0]), 0, 0 },
	{ "mmSDMA7_RLC0_MIDCMD_DATA5", REG_MMIO, 0x0175, 1, &mmSDMA7_RLC0_MIDCMD_DATA5[0], sizeof(mmSDMA7_RLC0_MIDCMD_DATA5)/sizeof(mmSDMA7_RLC0_MIDCMD_DATA5[0]), 0, 0 },
	{ "mmSDMA7_RLC0_MIDCMD_DATA6", REG_MMIO, 0x0176, 1, &mmSDMA7_RLC0_MIDCMD_DATA6[0], sizeof(mmSDMA7_RLC0_MIDCMD_DATA6)/sizeof(mmSDMA7_RLC0_MIDCMD_DATA6[0]), 0, 0 },
	{ "mmSDMA7_RLC0_MIDCMD_DATA7", REG_MMIO, 0x0177, 1, &mmSDMA7_RLC0_MIDCMD_DATA7[0], sizeof(mmSDMA7_RLC0_MIDCMD_DATA7)/sizeof(mmSDMA7_RLC0_MIDCMD_DATA7[0]), 0, 0 },
	{ "mmSDMA7_RLC0_MIDCMD_DATA8", REG_MMIO, 0x0178, 1, &mmSDMA7_RLC0_MIDCMD_DATA8[0], sizeof(mmSDMA7_RLC0_MIDCMD_DATA8)/sizeof(mmSDMA7_RLC0_MIDCMD_DATA8[0]), 0, 0 },
	{ "mmSDMA7_RLC0_MIDCMD_CNTL", REG_MMIO, 0x0179, 1, &mmSDMA7_RLC0_MIDCMD_CNTL[0], sizeof(mmSDMA7_RLC0_MIDCMD_CNTL)/sizeof(mmSDMA7_RLC0_MIDCMD_CNTL[0]), 0, 0 },
	{ "mmSDMA7_RLC1_RB_CNTL", REG_MMIO, 0x0188, 1, &mmSDMA7_RLC1_RB_CNTL[0], sizeof(mmSDMA7_RLC1_RB_CNTL)/sizeof(mmSDMA7_RLC1_RB_CNTL[0]), 0, 0 },
	{ "mmSDMA7_RLC1_RB_BASE", REG_MMIO, 0x0189, 1, &mmSDMA7_RLC1_RB_BASE[0], sizeof(mmSDMA7_RLC1_RB_BASE)/sizeof(mmSDMA7_RLC1_RB_BASE[0]), 0, 0 },
	{ "mmSDMA7_RLC1_RB_BASE_HI", REG_MMIO, 0x018a, 1, &mmSDMA7_RLC1_RB_BASE_HI[0], sizeof(mmSDMA7_RLC1_RB_BASE_HI)/sizeof(mmSDMA7_RLC1_RB_BASE_HI[0]), 0, 0 },
	{ "mmSDMA7_RLC1_RB_RPTR", REG_MMIO, 0x018b, 1, &mmSDMA7_RLC1_RB_RPTR[0], sizeof(mmSDMA7_RLC1_RB_RPTR)/sizeof(mmSDMA7_RLC1_RB_RPTR[0]), 0, 0 },
	{ "mmSDMA7_RLC1_RB_RPTR_HI", REG_MMIO, 0x018c, 1, &mmSDMA7_RLC1_RB_RPTR_HI[0], sizeof(mmSDMA7_RLC1_RB_RPTR_HI)/sizeof(mmSDMA7_RLC1_RB_RPTR_HI[0]), 0, 0 },
	{ "mmSDMA7_RLC1_RB_WPTR", REG_MMIO, 0x018d, 1, &mmSDMA7_RLC1_RB_WPTR[0], sizeof(mmSDMA7_RLC1_RB_WPTR)/sizeof(mmSDMA7_RLC1_RB_WPTR[0]), 0, 0 },
	{ "mmSDMA7_RLC1_RB_WPTR_HI", REG_MMIO, 0x018e, 1, &mmSDMA7_RLC1_RB_WPTR_HI[0], sizeof(mmSDMA7_RLC1_RB_WPTR_HI)/sizeof(mmSDMA7_RLC1_RB_WPTR_HI[0]), 0, 0 },
	{ "mmSDMA7_RLC1_RB_WPTR_POLL_CNTL", REG_MMIO, 0x018f, 1, &mmSDMA7_RLC1_RB_WPTR_POLL_CNTL[0], sizeof(mmSDMA7_RLC1_RB_WPTR_POLL_CNTL)/sizeof(mmSDMA7_RLC1_RB_WPTR_POLL_CNTL[0]), 0, 0 },
	{ "mmSDMA7_RLC1_RB_RPTR_ADDR_HI", REG_MMIO, 0x0190, 1, &mmSDMA7_RLC1_RB_RPTR_ADDR_HI[0], sizeof(mmSDMA7_RLC1_RB_RPTR_ADDR_HI)/sizeof(mmSDMA7_RLC1_RB_RPTR_ADDR_HI[0]), 0, 0 },
	{ "mmSDMA7_RLC1_RB_RPTR_ADDR_LO", REG_MMIO, 0x0191, 1, &mmSDMA7_RLC1_RB_RPTR_ADDR_LO[0], sizeof(mmSDMA7_RLC1_RB_RPTR_ADDR_LO)/sizeof(mmSDMA7_RLC1_RB_RPTR_ADDR_LO[0]), 0, 0 },
	{ "mmSDMA7_RLC1_IB_CNTL", REG_MMIO, 0x0192, 1, &mmSDMA7_RLC1_IB_CNTL[0], sizeof(mmSDMA7_RLC1_IB_CNTL)/sizeof(mmSDMA7_RLC1_IB_CNTL[0]), 0, 0 },
	{ "mmSDMA7_RLC1_IB_RPTR", REG_MMIO, 0x0193, 1, &mmSDMA7_RLC1_IB_RPTR[0], sizeof(mmSDMA7_RLC1_IB_RPTR)/sizeof(mmSDMA7_RLC1_IB_RPTR[0]), 0, 0 },
	{ "mmSDMA7_RLC1_IB_OFFSET", REG_MMIO, 0x0194, 1, &mmSDMA7_RLC1_IB_OFFSET[0], sizeof(mmSDMA7_RLC1_IB_OFFSET)/sizeof(mmSDMA7_RLC1_IB_OFFSET[0]), 0, 0 },
	{ "mmSDMA7_RLC1_IB_BASE_LO", REG_MMIO, 0x0195, 1, &mmSDMA7_RLC1_IB_BASE_LO[0], sizeof(mmSDMA7_RLC1_IB_BASE_LO)/sizeof(mmSDMA7_RLC1_IB_BASE_LO[0]), 0, 0 },
	{ "mmSDMA7_RLC1_IB_BASE_HI", REG_MMIO, 0x0196, 1, &mmSDMA7_RLC1_IB_BASE_HI[0], sizeof(mmSDMA7_RLC1_IB_BASE_HI)/sizeof(mmSDMA7_RLC1_IB_BASE_HI[0]), 0, 0 },
	{ "mmSDMA7_RLC1_IB_SIZE", REG_MMIO, 0x0197, 1, &mmSDMA7_RLC1_IB_SIZE[0], sizeof(mmSDMA7_RLC1_IB_SIZE)/sizeof(mmSDMA7_RLC1_IB_SIZE[0]), 0, 0 },
	{ "mmSDMA7_RLC1_SKIP_CNTL", REG_MMIO, 0x0198, 1, &mmSDMA7_RLC1_SKIP_CNTL[0], sizeof(mmSDMA7_RLC1_SKIP_CNTL)/sizeof(mmSDMA7_RLC1_SKIP_CNTL[0]), 0, 0 },
	{ "mmSDMA7_RLC1_CONTEXT_STATUS", REG_MMIO, 0x0199, 1, &mmSDMA7_RLC1_CONTEXT_STATUS[0], sizeof(mmSDMA7_RLC1_CONTEXT_STATUS)/sizeof(mmSDMA7_RLC1_CONTEXT_STATUS[0]), 0, 0 },
	{ "mmSDMA7_RLC1_DOORBELL", REG_MMIO, 0x019a, 1, &mmSDMA7_RLC1_DOORBELL[0], sizeof(mmSDMA7_RLC1_DOORBELL)/sizeof(mmSDMA7_RLC1_DOORBELL[0]), 0, 0 },
	{ "mmSDMA7_RLC1_STATUS", REG_MMIO, 0x01b0, 1, &mmSDMA7_RLC1_STATUS[0], sizeof(mmSDMA7_RLC1_STATUS)/sizeof(mmSDMA7_RLC1_STATUS[0]), 0, 0 },
	{ "mmSDMA7_RLC1_DOORBELL_LOG", REG_MMIO, 0x01b1, 1, &mmSDMA7_RLC1_DOORBELL_LOG[0], sizeof(mmSDMA7_RLC1_DOORBELL_LOG)/sizeof(mmSDMA7_RLC1_DOORBELL_LOG[0]), 0, 0 },
	{ "mmSDMA7_RLC1_WATERMARK", REG_MMIO, 0x01b2, 1, &mmSDMA7_RLC1_WATERMARK[0], sizeof(mmSDMA7_RLC1_WATERMARK)/sizeof(mmSDMA7_RLC1_WATERMARK[0]), 0, 0 },
	{ "mmSDMA7_RLC1_DOORBELL_OFFSET", REG_MMIO, 0x01b3, 1, &mmSDMA7_RLC1_DOORBELL_OFFSET[0], sizeof(mmSDMA7_RLC1_DOORBELL_OFFSET)/sizeof(mmSDMA7_RLC1_DOORBELL_OFFSET[0]), 0, 0 },
	{ "mmSDMA7_RLC1_CSA_ADDR_LO", REG_MMIO, 0x01b4, 1, &mmSDMA7_RLC1_CSA_ADDR_LO[0], sizeof(mmSDMA7_RLC1_CSA_ADDR_LO)/sizeof(mmSDMA7_RLC1_CSA_ADDR_LO[0]), 0, 0 },
	{ "mmSDMA7_RLC1_CSA_ADDR_HI", REG_MMIO, 0x01b5, 1, &mmSDMA7_RLC1_CSA_ADDR_HI[0], sizeof(mmSDMA7_RLC1_CSA_ADDR_HI)/sizeof(mmSDMA7_RLC1_CSA_ADDR_HI[0]), 0, 0 },
	{ "mmSDMA7_RLC1_IB_SUB_REMAIN", REG_MMIO, 0x01b7, 1, &mmSDMA7_RLC1_IB_SUB_REMAIN[0], sizeof(mmSDMA7_RLC1_IB_SUB_REMAIN)/sizeof(mmSDMA7_RLC1_IB_SUB_REMAIN[0]), 0, 0 },
	{ "mmSDMA7_RLC1_PREEMPT", REG_MMIO, 0x01b8, 1, &mmSDMA7_RLC1_PREEMPT[0], sizeof(mmSDMA7_RLC1_PREEMPT)/sizeof(mmSDMA7_RLC1_PREEMPT[0]), 0, 0 },
	{ "mmSDMA7_RLC1_DUMMY_REG", REG_MMIO, 0x01b9, 1, &mmSDMA7_RLC1_DUMMY_REG[0], sizeof(mmSDMA7_RLC1_DUMMY_REG)/sizeof(mmSDMA7_RLC1_DUMMY_REG[0]), 0, 0 },
	{ "mmSDMA7_RLC1_RB_WPTR_POLL_ADDR_HI", REG_MMIO, 0x01ba, 1, &mmSDMA7_RLC1_RB_WPTR_POLL_ADDR_HI[0], sizeof(mmSDMA7_RLC1_RB_WPTR_POLL_ADDR_HI)/sizeof(mmSDMA7_RLC1_RB_WPTR_POLL_ADDR_HI[0]), 0, 0 },
	{ "mmSDMA7_RLC1_RB_WPTR_POLL_ADDR_LO", REG_MMIO, 0x01bb, 1, &mmSDMA7_RLC1_RB_WPTR_POLL_ADDR_LO[0], sizeof(mmSDMA7_RLC1_RB_WPTR_POLL_ADDR_LO)/sizeof(mmSDMA7_RLC1_RB_WPTR_POLL_ADDR_LO[0]), 0, 0 },
	{ "mmSDMA7_RLC1_RB_AQL_CNTL", REG_MMIO, 0x01bc, 1, &mmSDMA7_RLC1_RB_AQL_CNTL[0], sizeof(mmSDMA7_RLC1_RB_AQL_CNTL)/sizeof(mmSDMA7_RLC1_RB_AQL_CNTL[0]), 0, 0 },
	{ "mmSDMA7_RLC1_MINOR_PTR_UPDATE", REG_MMIO, 0x01bd, 1, &mmSDMA7_RLC1_MINOR_PTR_UPDATE[0], sizeof(mmSDMA7_RLC1_MINOR_PTR_UPDATE)/sizeof(mmSDMA7_RLC1_MINOR_PTR_UPDATE[0]), 0, 0 },
	{ "mmSDMA7_RLC1_MIDCMD_DATA0", REG_MMIO, 0x01c8, 1, &mmSDMA7_RLC1_MIDCMD_DATA0[0], sizeof(mmSDMA7_RLC1_MIDCMD_DATA0)/sizeof(mmSDMA7_RLC1_MIDCMD_DATA0[0]), 0, 0 },
	{ "mmSDMA7_RLC1_MIDCMD_DATA1", REG_MMIO, 0x01c9, 1, &mmSDMA7_RLC1_MIDCMD_DATA1[0], sizeof(mmSDMA7_RLC1_MIDCMD_DATA1)/sizeof(mmSDMA7_RLC1_MIDCMD_DATA1[0]), 0, 0 },
	{ "mmSDMA7_RLC1_MIDCMD_DATA2", REG_MMIO, 0x01ca, 1, &mmSDMA7_RLC1_MIDCMD_DATA2[0], sizeof(mmSDMA7_RLC1_MIDCMD_DATA2)/sizeof(mmSDMA7_RLC1_MIDCMD_DATA2[0]), 0, 0 },
	{ "mmSDMA7_RLC1_MIDCMD_DATA3", REG_MMIO, 0x01cb, 1, &mmSDMA7_RLC1_MIDCMD_DATA3[0], sizeof(mmSDMA7_RLC1_MIDCMD_DATA3)/sizeof(mmSDMA7_RLC1_MIDCMD_DATA3[0]), 0, 0 },
	{ "mmSDMA7_RLC1_MIDCMD_DATA4", REG_MMIO, 0x01cc, 1, &mmSDMA7_RLC1_MIDCMD_DATA4[0], sizeof(mmSDMA7_RLC1_MIDCMD_DATA4)/sizeof(mmSDMA7_RLC1_MIDCMD_DATA4[0]), 0, 0 },
	{ "mmSDMA7_RLC1_MIDCMD_DATA5", REG_MMIO, 0x01cd, 1, &mmSDMA7_RLC1_MIDCMD_DATA5[0], sizeof(mmSDMA7_RLC1_MIDCMD_DATA5)/sizeof(mmSDMA7_RLC1_MIDCMD_DATA5[0]), 0, 0 },
	{ "mmSDMA7_RLC1_MIDCMD_DATA6", REG_MMIO, 0x01ce, 1, &mmSDMA7_RLC1_MIDCMD_DATA6[0], sizeof(mmSDMA7_RLC1_MIDCMD_DATA6)/sizeof(mmSDMA7_RLC1_MIDCMD_DATA6[0]), 0, 0 },
	{ "mmSDMA7_RLC1_MIDCMD_DATA7", REG_MMIO, 0x01cf, 1, &mmSDMA7_RLC1_MIDCMD_DATA7[0], sizeof(mmSDMA7_RLC1_MIDCMD_DATA7)/sizeof(mmSDMA7_RLC1_MIDCMD_DATA7[0]), 0, 0 },
	{ "mmSDMA7_RLC1_MIDCMD_DATA8", REG_MMIO, 0x01d0, 1, &mmSDMA7_RLC1_MIDCMD_DATA8[0], sizeof(mmSDMA7_RLC1_MIDCMD_DATA8)/sizeof(mmSDMA7_RLC1_MIDCMD_DATA8[0]), 0, 0 },
	{ "mmSDMA7_RLC1_MIDCMD_CNTL", REG_MMIO, 0x01d1, 1, &mmSDMA7_RLC1_MIDCMD_CNTL[0], sizeof(mmSDMA7_RLC1_MIDCMD_CNTL)/sizeof(mmSDMA7_RLC1_MIDCMD_CNTL[0]), 0, 0 },
	{ "mmSDMA7_RLC2_RB_CNTL", REG_MMIO, 0x01e0, 1, &mmSDMA7_RLC2_RB_CNTL[0], sizeof(mmSDMA7_RLC2_RB_CNTL)/sizeof(mmSDMA7_RLC2_RB_CNTL[0]), 0, 0 },
	{ "mmSDMA7_RLC2_RB_BASE", REG_MMIO, 0x01e1, 1, &mmSDMA7_RLC2_RB_BASE[0], sizeof(mmSDMA7_RLC2_RB_BASE)/sizeof(mmSDMA7_RLC2_RB_BASE[0]), 0, 0 },
	{ "mmSDMA7_RLC2_RB_BASE_HI", REG_MMIO, 0x01e2, 1, &mmSDMA7_RLC2_RB_BASE_HI[0], sizeof(mmSDMA7_RLC2_RB_BASE_HI)/sizeof(mmSDMA7_RLC2_RB_BASE_HI[0]), 0, 0 },
	{ "mmSDMA7_RLC2_RB_RPTR", REG_MMIO, 0x01e3, 1, &mmSDMA7_RLC2_RB_RPTR[0], sizeof(mmSDMA7_RLC2_RB_RPTR)/sizeof(mmSDMA7_RLC2_RB_RPTR[0]), 0, 0 },
	{ "mmSDMA7_RLC2_RB_RPTR_HI", REG_MMIO, 0x01e4, 1, &mmSDMA7_RLC2_RB_RPTR_HI[0], sizeof(mmSDMA7_RLC2_RB_RPTR_HI)/sizeof(mmSDMA7_RLC2_RB_RPTR_HI[0]), 0, 0 },
	{ "mmSDMA7_RLC2_RB_WPTR", REG_MMIO, 0x01e5, 1, &mmSDMA7_RLC2_RB_WPTR[0], sizeof(mmSDMA7_RLC2_RB_WPTR)/sizeof(mmSDMA7_RLC2_RB_WPTR[0]), 0, 0 },
	{ "mmSDMA7_RLC2_RB_WPTR_HI", REG_MMIO, 0x01e6, 1, &mmSDMA7_RLC2_RB_WPTR_HI[0], sizeof(mmSDMA7_RLC2_RB_WPTR_HI)/sizeof(mmSDMA7_RLC2_RB_WPTR_HI[0]), 0, 0 },
	{ "mmSDMA7_RLC2_RB_WPTR_POLL_CNTL", REG_MMIO, 0x01e7, 1, &mmSDMA7_RLC2_RB_WPTR_POLL_CNTL[0], sizeof(mmSDMA7_RLC2_RB_WPTR_POLL_CNTL)/sizeof(mmSDMA7_RLC2_RB_WPTR_POLL_CNTL[0]), 0, 0 },
	{ "mmSDMA7_RLC2_RB_RPTR_ADDR_HI", REG_MMIO, 0x01e8, 1, &mmSDMA7_RLC2_RB_RPTR_ADDR_HI[0], sizeof(mmSDMA7_RLC2_RB_RPTR_ADDR_HI)/sizeof(mmSDMA7_RLC2_RB_RPTR_ADDR_HI[0]), 0, 0 },
	{ "mmSDMA7_RLC2_RB_RPTR_ADDR_LO", REG_MMIO, 0x01e9, 1, &mmSDMA7_RLC2_RB_RPTR_ADDR_LO[0], sizeof(mmSDMA7_RLC2_RB_RPTR_ADDR_LO)/sizeof(mmSDMA7_RLC2_RB_RPTR_ADDR_LO[0]), 0, 0 },
	{ "mmSDMA7_RLC2_IB_CNTL", REG_MMIO, 0x01ea, 1, &mmSDMA7_RLC2_IB_CNTL[0], sizeof(mmSDMA7_RLC2_IB_CNTL)/sizeof(mmSDMA7_RLC2_IB_CNTL[0]), 0, 0 },
	{ "mmSDMA7_RLC2_IB_RPTR", REG_MMIO, 0x01eb, 1, &mmSDMA7_RLC2_IB_RPTR[0], sizeof(mmSDMA7_RLC2_IB_RPTR)/sizeof(mmSDMA7_RLC2_IB_RPTR[0]), 0, 0 },
	{ "mmSDMA7_RLC2_IB_OFFSET", REG_MMIO, 0x01ec, 1, &mmSDMA7_RLC2_IB_OFFSET[0], sizeof(mmSDMA7_RLC2_IB_OFFSET)/sizeof(mmSDMA7_RLC2_IB_OFFSET[0]), 0, 0 },
	{ "mmSDMA7_RLC2_IB_BASE_LO", REG_MMIO, 0x01ed, 1, &mmSDMA7_RLC2_IB_BASE_LO[0], sizeof(mmSDMA7_RLC2_IB_BASE_LO)/sizeof(mmSDMA7_RLC2_IB_BASE_LO[0]), 0, 0 },
	{ "mmSDMA7_RLC2_IB_BASE_HI", REG_MMIO, 0x01ee, 1, &mmSDMA7_RLC2_IB_BASE_HI[0], sizeof(mmSDMA7_RLC2_IB_BASE_HI)/sizeof(mmSDMA7_RLC2_IB_BASE_HI[0]), 0, 0 },
	{ "mmSDMA7_RLC2_IB_SIZE", REG_MMIO, 0x01ef, 1, &mmSDMA7_RLC2_IB_SIZE[0], sizeof(mmSDMA7_RLC2_IB_SIZE)/sizeof(mmSDMA7_RLC2_IB_SIZE[0]), 0, 0 },
	{ "mmSDMA7_RLC2_SKIP_CNTL", REG_MMIO, 0x01f0, 1, &mmSDMA7_RLC2_SKIP_CNTL[0], sizeof(mmSDMA7_RLC2_SKIP_CNTL)/sizeof(mmSDMA7_RLC2_SKIP_CNTL[0]), 0, 0 },
	{ "mmSDMA7_RLC2_CONTEXT_STATUS", REG_MMIO, 0x01f1, 1, &mmSDMA7_RLC2_CONTEXT_STATUS[0], sizeof(mmSDMA7_RLC2_CONTEXT_STATUS)/sizeof(mmSDMA7_RLC2_CONTEXT_STATUS[0]), 0, 0 },
	{ "mmSDMA7_RLC2_DOORBELL", REG_MMIO, 0x01f2, 1, &mmSDMA7_RLC2_DOORBELL[0], sizeof(mmSDMA7_RLC2_DOORBELL)/sizeof(mmSDMA7_RLC2_DOORBELL[0]), 0, 0 },
	{ "mmSDMA7_RLC2_STATUS", REG_MMIO, 0x0208, 1, &mmSDMA7_RLC2_STATUS[0], sizeof(mmSDMA7_RLC2_STATUS)/sizeof(mmSDMA7_RLC2_STATUS[0]), 0, 0 },
	{ "mmSDMA7_RLC2_DOORBELL_LOG", REG_MMIO, 0x0209, 1, &mmSDMA7_RLC2_DOORBELL_LOG[0], sizeof(mmSDMA7_RLC2_DOORBELL_LOG)/sizeof(mmSDMA7_RLC2_DOORBELL_LOG[0]), 0, 0 },
	{ "mmSDMA7_RLC2_WATERMARK", REG_MMIO, 0x020a, 1, &mmSDMA7_RLC2_WATERMARK[0], sizeof(mmSDMA7_RLC2_WATERMARK)/sizeof(mmSDMA7_RLC2_WATERMARK[0]), 0, 0 },
	{ "mmSDMA7_RLC2_DOORBELL_OFFSET", REG_MMIO, 0x020b, 1, &mmSDMA7_RLC2_DOORBELL_OFFSET[0], sizeof(mmSDMA7_RLC2_DOORBELL_OFFSET)/sizeof(mmSDMA7_RLC2_DOORBELL_OFFSET[0]), 0, 0 },
	{ "mmSDMA7_RLC2_CSA_ADDR_LO", REG_MMIO, 0x020c, 1, &mmSDMA7_RLC2_CSA_ADDR_LO[0], sizeof(mmSDMA7_RLC2_CSA_ADDR_LO)/sizeof(mmSDMA7_RLC2_CSA_ADDR_LO[0]), 0, 0 },
	{ "mmSDMA7_RLC2_CSA_ADDR_HI", REG_MMIO, 0x020d, 1, &mmSDMA7_RLC2_CSA_ADDR_HI[0], sizeof(mmSDMA7_RLC2_CSA_ADDR_HI)/sizeof(mmSDMA7_RLC2_CSA_ADDR_HI[0]), 0, 0 },
	{ "mmSDMA7_RLC2_IB_SUB_REMAIN", REG_MMIO, 0x020f, 1, &mmSDMA7_RLC2_IB_SUB_REMAIN[0], sizeof(mmSDMA7_RLC2_IB_SUB_REMAIN)/sizeof(mmSDMA7_RLC2_IB_SUB_REMAIN[0]), 0, 0 },
	{ "mmSDMA7_RLC2_PREEMPT", REG_MMIO, 0x0210, 1, &mmSDMA7_RLC2_PREEMPT[0], sizeof(mmSDMA7_RLC2_PREEMPT)/sizeof(mmSDMA7_RLC2_PREEMPT[0]), 0, 0 },
	{ "mmSDMA7_RLC2_DUMMY_REG", REG_MMIO, 0x0211, 1, &mmSDMA7_RLC2_DUMMY_REG[0], sizeof(mmSDMA7_RLC2_DUMMY_REG)/sizeof(mmSDMA7_RLC2_DUMMY_REG[0]), 0, 0 },
	{ "mmSDMA7_RLC2_RB_WPTR_POLL_ADDR_HI", REG_MMIO, 0x0212, 1, &mmSDMA7_RLC2_RB_WPTR_POLL_ADDR_HI[0], sizeof(mmSDMA7_RLC2_RB_WPTR_POLL_ADDR_HI)/sizeof(mmSDMA7_RLC2_RB_WPTR_POLL_ADDR_HI[0]), 0, 0 },
	{ "mmSDMA7_RLC2_RB_WPTR_POLL_ADDR_LO", REG_MMIO, 0x0213, 1, &mmSDMA7_RLC2_RB_WPTR_POLL_ADDR_LO[0], sizeof(mmSDMA7_RLC2_RB_WPTR_POLL_ADDR_LO)/sizeof(mmSDMA7_RLC2_RB_WPTR_POLL_ADDR_LO[0]), 0, 0 },
	{ "mmSDMA7_RLC2_RB_AQL_CNTL", REG_MMIO, 0x0214, 1, &mmSDMA7_RLC2_RB_AQL_CNTL[0], sizeof(mmSDMA7_RLC2_RB_AQL_CNTL)/sizeof(mmSDMA7_RLC2_RB_AQL_CNTL[0]), 0, 0 },
	{ "mmSDMA7_RLC2_MINOR_PTR_UPDATE", REG_MMIO, 0x0215, 1, &mmSDMA7_RLC2_MINOR_PTR_UPDATE[0], sizeof(mmSDMA7_RLC2_MINOR_PTR_UPDATE)/sizeof(mmSDMA7_RLC2_MINOR_PTR_UPDATE[0]), 0, 0 },
	{ "mmSDMA7_RLC2_MIDCMD_DATA0", REG_MMIO, 0x0220, 1, &mmSDMA7_RLC2_MIDCMD_DATA0[0], sizeof(mmSDMA7_RLC2_MIDCMD_DATA0)/sizeof(mmSDMA7_RLC2_MIDCMD_DATA0[0]), 0, 0 },
	{ "mmSDMA7_RLC2_MIDCMD_DATA1", REG_MMIO, 0x0221, 1, &mmSDMA7_RLC2_MIDCMD_DATA1[0], sizeof(mmSDMA7_RLC2_MIDCMD_DATA1)/sizeof(mmSDMA7_RLC2_MIDCMD_DATA1[0]), 0, 0 },
	{ "mmSDMA7_RLC2_MIDCMD_DATA2", REG_MMIO, 0x0222, 1, &mmSDMA7_RLC2_MIDCMD_DATA2[0], sizeof(mmSDMA7_RLC2_MIDCMD_DATA2)/sizeof(mmSDMA7_RLC2_MIDCMD_DATA2[0]), 0, 0 },
	{ "mmSDMA7_RLC2_MIDCMD_DATA3", REG_MMIO, 0x0223, 1, &mmSDMA7_RLC2_MIDCMD_DATA3[0], sizeof(mmSDMA7_RLC2_MIDCMD_DATA3)/sizeof(mmSDMA7_RLC2_MIDCMD_DATA3[0]), 0, 0 },
	{ "mmSDMA7_RLC2_MIDCMD_DATA4", REG_MMIO, 0x0224, 1, &mmSDMA7_RLC2_MIDCMD_DATA4[0], sizeof(mmSDMA7_RLC2_MIDCMD_DATA4)/sizeof(mmSDMA7_RLC2_MIDCMD_DATA4[0]), 0, 0 },
	{ "mmSDMA7_RLC2_MIDCMD_DATA5", REG_MMIO, 0x0225, 1, &mmSDMA7_RLC2_MIDCMD_DATA5[0], sizeof(mmSDMA7_RLC2_MIDCMD_DATA5)/sizeof(mmSDMA7_RLC2_MIDCMD_DATA5[0]), 0, 0 },
	{ "mmSDMA7_RLC2_MIDCMD_DATA6", REG_MMIO, 0x0226, 1, &mmSDMA7_RLC2_MIDCMD_DATA6[0], sizeof(mmSDMA7_RLC2_MIDCMD_DATA6)/sizeof(mmSDMA7_RLC2_MIDCMD_DATA6[0]), 0, 0 },
	{ "mmSDMA7_RLC2_MIDCMD_DATA7", REG_MMIO, 0x0227, 1, &mmSDMA7_RLC2_MIDCMD_DATA7[0], sizeof(mmSDMA7_RLC2_MIDCMD_DATA7)/sizeof(mmSDMA7_RLC2_MIDCMD_DATA7[0]), 0, 0 },
	{ "mmSDMA7_RLC2_MIDCMD_DATA8", REG_MMIO, 0x0228, 1, &mmSDMA7_RLC2_MIDCMD_DATA8[0], sizeof(mmSDMA7_RLC2_MIDCMD_DATA8)/sizeof(mmSDMA7_RLC2_MIDCMD_DATA8[0]), 0, 0 },
	{ "mmSDMA7_RLC2_MIDCMD_CNTL", REG_MMIO, 0x0229, 1, &mmSDMA7_RLC2_MIDCMD_CNTL[0], sizeof(mmSDMA7_RLC2_MIDCMD_CNTL)/sizeof(mmSDMA7_RLC2_MIDCMD_CNTL[0]), 0, 0 },
	{ "mmSDMA7_RLC3_RB_CNTL", REG_MMIO, 0x0238, 1, &mmSDMA7_RLC3_RB_CNTL[0], sizeof(mmSDMA7_RLC3_RB_CNTL)/sizeof(mmSDMA7_RLC3_RB_CNTL[0]), 0, 0 },
	{ "mmSDMA7_RLC3_RB_BASE", REG_MMIO, 0x0239, 1, &mmSDMA7_RLC3_RB_BASE[0], sizeof(mmSDMA7_RLC3_RB_BASE)/sizeof(mmSDMA7_RLC3_RB_BASE[0]), 0, 0 },
	{ "mmSDMA7_RLC3_RB_BASE_HI", REG_MMIO, 0x023a, 1, &mmSDMA7_RLC3_RB_BASE_HI[0], sizeof(mmSDMA7_RLC3_RB_BASE_HI)/sizeof(mmSDMA7_RLC3_RB_BASE_HI[0]), 0, 0 },
	{ "mmSDMA7_RLC3_RB_RPTR", REG_MMIO, 0x023b, 1, &mmSDMA7_RLC3_RB_RPTR[0], sizeof(mmSDMA7_RLC3_RB_RPTR)/sizeof(mmSDMA7_RLC3_RB_RPTR[0]), 0, 0 },
	{ "mmSDMA7_RLC3_RB_RPTR_HI", REG_MMIO, 0x023c, 1, &mmSDMA7_RLC3_RB_RPTR_HI[0], sizeof(mmSDMA7_RLC3_RB_RPTR_HI)/sizeof(mmSDMA7_RLC3_RB_RPTR_HI[0]), 0, 0 },
	{ "mmSDMA7_RLC3_RB_WPTR", REG_MMIO, 0x023d, 1, &mmSDMA7_RLC3_RB_WPTR[0], sizeof(mmSDMA7_RLC3_RB_WPTR)/sizeof(mmSDMA7_RLC3_RB_WPTR[0]), 0, 0 },
	{ "mmSDMA7_RLC3_RB_WPTR_HI", REG_MMIO, 0x023e, 1, &mmSDMA7_RLC3_RB_WPTR_HI[0], sizeof(mmSDMA7_RLC3_RB_WPTR_HI)/sizeof(mmSDMA7_RLC3_RB_WPTR_HI[0]), 0, 0 },
	{ "mmSDMA7_RLC3_RB_WPTR_POLL_CNTL", REG_MMIO, 0x023f, 1, &mmSDMA7_RLC3_RB_WPTR_POLL_CNTL[0], sizeof(mmSDMA7_RLC3_RB_WPTR_POLL_CNTL)/sizeof(mmSDMA7_RLC3_RB_WPTR_POLL_CNTL[0]), 0, 0 },
	{ "mmSDMA7_RLC3_RB_RPTR_ADDR_HI", REG_MMIO, 0x0240, 1, &mmSDMA7_RLC3_RB_RPTR_ADDR_HI[0], sizeof(mmSDMA7_RLC3_RB_RPTR_ADDR_HI)/sizeof(mmSDMA7_RLC3_RB_RPTR_ADDR_HI[0]), 0, 0 },
	{ "mmSDMA7_RLC3_RB_RPTR_ADDR_LO", REG_MMIO, 0x0241, 1, &mmSDMA7_RLC3_RB_RPTR_ADDR_LO[0], sizeof(mmSDMA7_RLC3_RB_RPTR_ADDR_LO)/sizeof(mmSDMA7_RLC3_RB_RPTR_ADDR_LO[0]), 0, 0 },
	{ "mmSDMA7_RLC3_IB_CNTL", REG_MMIO, 0x0242, 1, &mmSDMA7_RLC3_IB_CNTL[0], sizeof(mmSDMA7_RLC3_IB_CNTL)/sizeof(mmSDMA7_RLC3_IB_CNTL[0]), 0, 0 },
	{ "mmSDMA7_RLC3_IB_RPTR", REG_MMIO, 0x0243, 1, &mmSDMA7_RLC3_IB_RPTR[0], sizeof(mmSDMA7_RLC3_IB_RPTR)/sizeof(mmSDMA7_RLC3_IB_RPTR[0]), 0, 0 },
	{ "mmSDMA7_RLC3_IB_OFFSET", REG_MMIO, 0x0244, 1, &mmSDMA7_RLC3_IB_OFFSET[0], sizeof(mmSDMA7_RLC3_IB_OFFSET)/sizeof(mmSDMA7_RLC3_IB_OFFSET[0]), 0, 0 },
	{ "mmSDMA7_RLC3_IB_BASE_LO", REG_MMIO, 0x0245, 1, &mmSDMA7_RLC3_IB_BASE_LO[0], sizeof(mmSDMA7_RLC3_IB_BASE_LO)/sizeof(mmSDMA7_RLC3_IB_BASE_LO[0]), 0, 0 },
	{ "mmSDMA7_RLC3_IB_BASE_HI", REG_MMIO, 0x0246, 1, &mmSDMA7_RLC3_IB_BASE_HI[0], sizeof(mmSDMA7_RLC3_IB_BASE_HI)/sizeof(mmSDMA7_RLC3_IB_BASE_HI[0]), 0, 0 },
	{ "mmSDMA7_RLC3_IB_SIZE", REG_MMIO, 0x0247, 1, &mmSDMA7_RLC3_IB_SIZE[0], sizeof(mmSDMA7_RLC3_IB_SIZE)/sizeof(mmSDMA7_RLC3_IB_SIZE[0]), 0, 0 },
	{ "mmSDMA7_RLC3_SKIP_CNTL", REG_MMIO, 0x0248, 1, &mmSDMA7_RLC3_SKIP_CNTL[0], sizeof(mmSDMA7_RLC3_SKIP_CNTL)/sizeof(mmSDMA7_RLC3_SKIP_CNTL[0]), 0, 0 },
	{ "mmSDMA7_RLC3_CONTEXT_STATUS", REG_MMIO, 0x0249, 1, &mmSDMA7_RLC3_CONTEXT_STATUS[0], sizeof(mmSDMA7_RLC3_CONTEXT_STATUS)/sizeof(mmSDMA7_RLC3_CONTEXT_STATUS[0]), 0, 0 },
	{ "mmSDMA7_RLC3_DOORBELL", REG_MMIO, 0x024a, 1, &mmSDMA7_RLC3_DOORBELL[0], sizeof(mmSDMA7_RLC3_DOORBELL)/sizeof(mmSDMA7_RLC3_DOORBELL[0]), 0, 0 },
	{ "mmSDMA7_RLC3_STATUS", REG_MMIO, 0x0260, 1, &mmSDMA7_RLC3_STATUS[0], sizeof(mmSDMA7_RLC3_STATUS)/sizeof(mmSDMA7_RLC3_STATUS[0]), 0, 0 },
	{ "mmSDMA7_RLC3_DOORBELL_LOG", REG_MMIO, 0x0261, 1, &mmSDMA7_RLC3_DOORBELL_LOG[0], sizeof(mmSDMA7_RLC3_DOORBELL_LOG)/sizeof(mmSDMA7_RLC3_DOORBELL_LOG[0]), 0, 0 },
	{ "mmSDMA7_RLC3_WATERMARK", REG_MMIO, 0x0262, 1, &mmSDMA7_RLC3_WATERMARK[0], sizeof(mmSDMA7_RLC3_WATERMARK)/sizeof(mmSDMA7_RLC3_WATERMARK[0]), 0, 0 },
	{ "mmSDMA7_RLC3_DOORBELL_OFFSET", REG_MMIO, 0x0263, 1, &mmSDMA7_RLC3_DOORBELL_OFFSET[0], sizeof(mmSDMA7_RLC3_DOORBELL_OFFSET)/sizeof(mmSDMA7_RLC3_DOORBELL_OFFSET[0]), 0, 0 },
	{ "mmSDMA7_RLC3_CSA_ADDR_LO", REG_MMIO, 0x0264, 1, &mmSDMA7_RLC3_CSA_ADDR_LO[0], sizeof(mmSDMA7_RLC3_CSA_ADDR_LO)/sizeof(mmSDMA7_RLC3_CSA_ADDR_LO[0]), 0, 0 },
	{ "mmSDMA7_RLC3_CSA_ADDR_HI", REG_MMIO, 0x0265, 1, &mmSDMA7_RLC3_CSA_ADDR_HI[0], sizeof(mmSDMA7_RLC3_CSA_ADDR_HI)/sizeof(mmSDMA7_RLC3_CSA_ADDR_HI[0]), 0, 0 },
	{ "mmSDMA7_RLC3_IB_SUB_REMAIN", REG_MMIO, 0x0267, 1, &mmSDMA7_RLC3_IB_SUB_REMAIN[0], sizeof(mmSDMA7_RLC3_IB_SUB_REMAIN)/sizeof(mmSDMA7_RLC3_IB_SUB_REMAIN[0]), 0, 0 },
	{ "mmSDMA7_RLC3_PREEMPT", REG_MMIO, 0x0268, 1, &mmSDMA7_RLC3_PREEMPT[0], sizeof(mmSDMA7_RLC3_PREEMPT)/sizeof(mmSDMA7_RLC3_PREEMPT[0]), 0, 0 },
	{ "mmSDMA7_RLC3_DUMMY_REG", REG_MMIO, 0x0269, 1, &mmSDMA7_RLC3_DUMMY_REG[0], sizeof(mmSDMA7_RLC3_DUMMY_REG)/sizeof(mmSDMA7_RLC3_DUMMY_REG[0]), 0, 0 },
	{ "mmSDMA7_RLC3_RB_WPTR_POLL_ADDR_HI", REG_MMIO, 0x026a, 1, &mmSDMA7_RLC3_RB_WPTR_POLL_ADDR_HI[0], sizeof(mmSDMA7_RLC3_RB_WPTR_POLL_ADDR_HI)/sizeof(mmSDMA7_RLC3_RB_WPTR_POLL_ADDR_HI[0]), 0, 0 },
	{ "mmSDMA7_RLC3_RB_WPTR_POLL_ADDR_LO", REG_MMIO, 0x026b, 1, &mmSDMA7_RLC3_RB_WPTR_POLL_ADDR_LO[0], sizeof(mmSDMA7_RLC3_RB_WPTR_POLL_ADDR_LO)/sizeof(mmSDMA7_RLC3_RB_WPTR_POLL_ADDR_LO[0]), 0, 0 },
	{ "mmSDMA7_RLC3_RB_AQL_CNTL", REG_MMIO, 0x026c, 1, &mmSDMA7_RLC3_RB_AQL_CNTL[0], sizeof(mmSDMA7_RLC3_RB_AQL_CNTL)/sizeof(mmSDMA7_RLC3_RB_AQL_CNTL[0]), 0, 0 },
	{ "mmSDMA7_RLC3_MINOR_PTR_UPDATE", REG_MMIO, 0x026d, 1, &mmSDMA7_RLC3_MINOR_PTR_UPDATE[0], sizeof(mmSDMA7_RLC3_MINOR_PTR_UPDATE)/sizeof(mmSDMA7_RLC3_MINOR_PTR_UPDATE[0]), 0, 0 },
	{ "mmSDMA7_RLC3_MIDCMD_DATA0", REG_MMIO, 0x0278, 1, &mmSDMA7_RLC3_MIDCMD_DATA0[0], sizeof(mmSDMA7_RLC3_MIDCMD_DATA0)/sizeof(mmSDMA7_RLC3_MIDCMD_DATA0[0]), 0, 0 },
	{ "mmSDMA7_RLC3_MIDCMD_DATA1", REG_MMIO, 0x0279, 1, &mmSDMA7_RLC3_MIDCMD_DATA1[0], sizeof(mmSDMA7_RLC3_MIDCMD_DATA1)/sizeof(mmSDMA7_RLC3_MIDCMD_DATA1[0]), 0, 0 },
	{ "mmSDMA7_RLC3_MIDCMD_DATA2", REG_MMIO, 0x027a, 1, &mmSDMA7_RLC3_MIDCMD_DATA2[0], sizeof(mmSDMA7_RLC3_MIDCMD_DATA2)/sizeof(mmSDMA7_RLC3_MIDCMD_DATA2[0]), 0, 0 },
	{ "mmSDMA7_RLC3_MIDCMD_DATA3", REG_MMIO, 0x027b, 1, &mmSDMA7_RLC3_MIDCMD_DATA3[0], sizeof(mmSDMA7_RLC3_MIDCMD_DATA3)/sizeof(mmSDMA7_RLC3_MIDCMD_DATA3[0]), 0, 0 },
	{ "mmSDMA7_RLC3_MIDCMD_DATA4", REG_MMIO, 0x027c, 1, &mmSDMA7_RLC3_MIDCMD_DATA4[0], sizeof(mmSDMA7_RLC3_MIDCMD_DATA4)/sizeof(mmSDMA7_RLC3_MIDCMD_DATA4[0]), 0, 0 },
	{ "mmSDMA7_RLC3_MIDCMD_DATA5", REG_MMIO, 0x027d, 1, &mmSDMA7_RLC3_MIDCMD_DATA5[0], sizeof(mmSDMA7_RLC3_MIDCMD_DATA5)/sizeof(mmSDMA7_RLC3_MIDCMD_DATA5[0]), 0, 0 },
	{ "mmSDMA7_RLC3_MIDCMD_DATA6", REG_MMIO, 0x027e, 1, &mmSDMA7_RLC3_MIDCMD_DATA6[0], sizeof(mmSDMA7_RLC3_MIDCMD_DATA6)/sizeof(mmSDMA7_RLC3_MIDCMD_DATA6[0]), 0, 0 },
	{ "mmSDMA7_RLC3_MIDCMD_DATA7", REG_MMIO, 0x027f, 1, &mmSDMA7_RLC3_MIDCMD_DATA7[0], sizeof(mmSDMA7_RLC3_MIDCMD_DATA7)/sizeof(mmSDMA7_RLC3_MIDCMD_DATA7[0]), 0, 0 },
	{ "mmSDMA7_RLC3_MIDCMD_DATA8", REG_MMIO, 0x0280, 1, &mmSDMA7_RLC3_MIDCMD_DATA8[0], sizeof(mmSDMA7_RLC3_MIDCMD_DATA8)/sizeof(mmSDMA7_RLC3_MIDCMD_DATA8[0]), 0, 0 },
	{ "mmSDMA7_RLC3_MIDCMD_CNTL", REG_MMIO, 0x0281, 1, &mmSDMA7_RLC3_MIDCMD_CNTL[0], sizeof(mmSDMA7_RLC3_MIDCMD_CNTL)/sizeof(mmSDMA7_RLC3_MIDCMD_CNTL[0]), 0, 0 },
	{ "mmSDMA7_RLC4_RB_CNTL", REG_MMIO, 0x0290, 1, &mmSDMA7_RLC4_RB_CNTL[0], sizeof(mmSDMA7_RLC4_RB_CNTL)/sizeof(mmSDMA7_RLC4_RB_CNTL[0]), 0, 0 },
	{ "mmSDMA7_RLC4_RB_BASE", REG_MMIO, 0x0291, 1, &mmSDMA7_RLC4_RB_BASE[0], sizeof(mmSDMA7_RLC4_RB_BASE)/sizeof(mmSDMA7_RLC4_RB_BASE[0]), 0, 0 },
	{ "mmSDMA7_RLC4_RB_BASE_HI", REG_MMIO, 0x0292, 1, &mmSDMA7_RLC4_RB_BASE_HI[0], sizeof(mmSDMA7_RLC4_RB_BASE_HI)/sizeof(mmSDMA7_RLC4_RB_BASE_HI[0]), 0, 0 },
	{ "mmSDMA7_RLC4_RB_RPTR", REG_MMIO, 0x0293, 1, &mmSDMA7_RLC4_RB_RPTR[0], sizeof(mmSDMA7_RLC4_RB_RPTR)/sizeof(mmSDMA7_RLC4_RB_RPTR[0]), 0, 0 },
	{ "mmSDMA7_RLC4_RB_RPTR_HI", REG_MMIO, 0x0294, 1, &mmSDMA7_RLC4_RB_RPTR_HI[0], sizeof(mmSDMA7_RLC4_RB_RPTR_HI)/sizeof(mmSDMA7_RLC4_RB_RPTR_HI[0]), 0, 0 },
	{ "mmSDMA7_RLC4_RB_WPTR", REG_MMIO, 0x0295, 1, &mmSDMA7_RLC4_RB_WPTR[0], sizeof(mmSDMA7_RLC4_RB_WPTR)/sizeof(mmSDMA7_RLC4_RB_WPTR[0]), 0, 0 },
	{ "mmSDMA7_RLC4_RB_WPTR_HI", REG_MMIO, 0x0296, 1, &mmSDMA7_RLC4_RB_WPTR_HI[0], sizeof(mmSDMA7_RLC4_RB_WPTR_HI)/sizeof(mmSDMA7_RLC4_RB_WPTR_HI[0]), 0, 0 },
	{ "mmSDMA7_RLC4_RB_WPTR_POLL_CNTL", REG_MMIO, 0x0297, 1, &mmSDMA7_RLC4_RB_WPTR_POLL_CNTL[0], sizeof(mmSDMA7_RLC4_RB_WPTR_POLL_CNTL)/sizeof(mmSDMA7_RLC4_RB_WPTR_POLL_CNTL[0]), 0, 0 },
	{ "mmSDMA7_RLC4_RB_RPTR_ADDR_HI", REG_MMIO, 0x0298, 1, &mmSDMA7_RLC4_RB_RPTR_ADDR_HI[0], sizeof(mmSDMA7_RLC4_RB_RPTR_ADDR_HI)/sizeof(mmSDMA7_RLC4_RB_RPTR_ADDR_HI[0]), 0, 0 },
	{ "mmSDMA7_RLC4_RB_RPTR_ADDR_LO", REG_MMIO, 0x0299, 1, &mmSDMA7_RLC4_RB_RPTR_ADDR_LO[0], sizeof(mmSDMA7_RLC4_RB_RPTR_ADDR_LO)/sizeof(mmSDMA7_RLC4_RB_RPTR_ADDR_LO[0]), 0, 0 },
	{ "mmSDMA7_RLC4_IB_CNTL", REG_MMIO, 0x029a, 1, &mmSDMA7_RLC4_IB_CNTL[0], sizeof(mmSDMA7_RLC4_IB_CNTL)/sizeof(mmSDMA7_RLC4_IB_CNTL[0]), 0, 0 },
	{ "mmSDMA7_RLC4_IB_RPTR", REG_MMIO, 0x029b, 1, &mmSDMA7_RLC4_IB_RPTR[0], sizeof(mmSDMA7_RLC4_IB_RPTR)/sizeof(mmSDMA7_RLC4_IB_RPTR[0]), 0, 0 },
	{ "mmSDMA7_RLC4_IB_OFFSET", REG_MMIO, 0x029c, 1, &mmSDMA7_RLC4_IB_OFFSET[0], sizeof(mmSDMA7_RLC4_IB_OFFSET)/sizeof(mmSDMA7_RLC4_IB_OFFSET[0]), 0, 0 },
	{ "mmSDMA7_RLC4_IB_BASE_LO", REG_MMIO, 0x029d, 1, &mmSDMA7_RLC4_IB_BASE_LO[0], sizeof(mmSDMA7_RLC4_IB_BASE_LO)/sizeof(mmSDMA7_RLC4_IB_BASE_LO[0]), 0, 0 },
	{ "mmSDMA7_RLC4_IB_BASE_HI", REG_MMIO, 0x029e, 1, &mmSDMA7_RLC4_IB_BASE_HI[0], sizeof(mmSDMA7_RLC4_IB_BASE_HI)/sizeof(mmSDMA7_RLC4_IB_BASE_HI[0]), 0, 0 },
	{ "mmSDMA7_RLC4_IB_SIZE", REG_MMIO, 0x029f, 1, &mmSDMA7_RLC4_IB_SIZE[0], sizeof(mmSDMA7_RLC4_IB_SIZE)/sizeof(mmSDMA7_RLC4_IB_SIZE[0]), 0, 0 },
	{ "mmSDMA7_RLC4_SKIP_CNTL", REG_MMIO, 0x02a0, 1, &mmSDMA7_RLC4_SKIP_CNTL[0], sizeof(mmSDMA7_RLC4_SKIP_CNTL)/sizeof(mmSDMA7_RLC4_SKIP_CNTL[0]), 0, 0 },
	{ "mmSDMA7_RLC4_CONTEXT_STATUS", REG_MMIO, 0x02a1, 1, &mmSDMA7_RLC4_CONTEXT_STATUS[0], sizeof(mmSDMA7_RLC4_CONTEXT_STATUS)/sizeof(mmSDMA7_RLC4_CONTEXT_STATUS[0]), 0, 0 },
	{ "mmSDMA7_RLC4_DOORBELL", REG_MMIO, 0x02a2, 1, &mmSDMA7_RLC4_DOORBELL[0], sizeof(mmSDMA7_RLC4_DOORBELL)/sizeof(mmSDMA7_RLC4_DOORBELL[0]), 0, 0 },
	{ "mmSDMA7_RLC4_STATUS", REG_MMIO, 0x02b8, 1, &mmSDMA7_RLC4_STATUS[0], sizeof(mmSDMA7_RLC4_STATUS)/sizeof(mmSDMA7_RLC4_STATUS[0]), 0, 0 },
	{ "mmSDMA7_RLC4_DOORBELL_LOG", REG_MMIO, 0x02b9, 1, &mmSDMA7_RLC4_DOORBELL_LOG[0], sizeof(mmSDMA7_RLC4_DOORBELL_LOG)/sizeof(mmSDMA7_RLC4_DOORBELL_LOG[0]), 0, 0 },
	{ "mmSDMA7_RLC4_WATERMARK", REG_MMIO, 0x02ba, 1, &mmSDMA7_RLC4_WATERMARK[0], sizeof(mmSDMA7_RLC4_WATERMARK)/sizeof(mmSDMA7_RLC4_WATERMARK[0]), 0, 0 },
	{ "mmSDMA7_RLC4_DOORBELL_OFFSET", REG_MMIO, 0x02bb, 1, &mmSDMA7_RLC4_DOORBELL_OFFSET[0], sizeof(mmSDMA7_RLC4_DOORBELL_OFFSET)/sizeof(mmSDMA7_RLC4_DOORBELL_OFFSET[0]), 0, 0 },
	{ "mmSDMA7_RLC4_CSA_ADDR_LO", REG_MMIO, 0x02bc, 1, &mmSDMA7_RLC4_CSA_ADDR_LO[0], sizeof(mmSDMA7_RLC4_CSA_ADDR_LO)/sizeof(mmSDMA7_RLC4_CSA_ADDR_LO[0]), 0, 0 },
	{ "mmSDMA7_RLC4_CSA_ADDR_HI", REG_MMIO, 0x02bd, 1, &mmSDMA7_RLC4_CSA_ADDR_HI[0], sizeof(mmSDMA7_RLC4_CSA_ADDR_HI)/sizeof(mmSDMA7_RLC4_CSA_ADDR_HI[0]), 0, 0 },
	{ "mmSDMA7_RLC4_IB_SUB_REMAIN", REG_MMIO, 0x02bf, 1, &mmSDMA7_RLC4_IB_SUB_REMAIN[0], sizeof(mmSDMA7_RLC4_IB_SUB_REMAIN)/sizeof(mmSDMA7_RLC4_IB_SUB_REMAIN[0]), 0, 0 },
	{ "mmSDMA7_RLC4_PREEMPT", REG_MMIO, 0x02c0, 1, &mmSDMA7_RLC4_PREEMPT[0], sizeof(mmSDMA7_RLC4_PREEMPT)/sizeof(mmSDMA7_RLC4_PREEMPT[0]), 0, 0 },
	{ "mmSDMA7_RLC4_DUMMY_REG", REG_MMIO, 0x02c1, 1, &mmSDMA7_RLC4_DUMMY_REG[0], sizeof(mmSDMA7_RLC4_DUMMY_REG)/sizeof(mmSDMA7_RLC4_DUMMY_REG[0]), 0, 0 },
	{ "mmSDMA7_RLC4_RB_WPTR_POLL_ADDR_HI", REG_MMIO, 0x02c2, 1, &mmSDMA7_RLC4_RB_WPTR_POLL_ADDR_HI[0], sizeof(mmSDMA7_RLC4_RB_WPTR_POLL_ADDR_HI)/sizeof(mmSDMA7_RLC4_RB_WPTR_POLL_ADDR_HI[0]), 0, 0 },
	{ "mmSDMA7_RLC4_RB_WPTR_POLL_ADDR_LO", REG_MMIO, 0x02c3, 1, &mmSDMA7_RLC4_RB_WPTR_POLL_ADDR_LO[0], sizeof(mmSDMA7_RLC4_RB_WPTR_POLL_ADDR_LO)/sizeof(mmSDMA7_RLC4_RB_WPTR_POLL_ADDR_LO[0]), 0, 0 },
	{ "mmSDMA7_RLC4_RB_AQL_CNTL", REG_MMIO, 0x02c4, 1, &mmSDMA7_RLC4_RB_AQL_CNTL[0], sizeof(mmSDMA7_RLC4_RB_AQL_CNTL)/sizeof(mmSDMA7_RLC4_RB_AQL_CNTL[0]), 0, 0 },
	{ "mmSDMA7_RLC4_MINOR_PTR_UPDATE", REG_MMIO, 0x02c5, 1, &mmSDMA7_RLC4_MINOR_PTR_UPDATE[0], sizeof(mmSDMA7_RLC4_MINOR_PTR_UPDATE)/sizeof(mmSDMA7_RLC4_MINOR_PTR_UPDATE[0]), 0, 0 },
	{ "mmSDMA7_RLC4_MIDCMD_DATA0", REG_MMIO, 0x02d0, 1, &mmSDMA7_RLC4_MIDCMD_DATA0[0], sizeof(mmSDMA7_RLC4_MIDCMD_DATA0)/sizeof(mmSDMA7_RLC4_MIDCMD_DATA0[0]), 0, 0 },
	{ "mmSDMA7_RLC4_MIDCMD_DATA1", REG_MMIO, 0x02d1, 1, &mmSDMA7_RLC4_MIDCMD_DATA1[0], sizeof(mmSDMA7_RLC4_MIDCMD_DATA1)/sizeof(mmSDMA7_RLC4_MIDCMD_DATA1[0]), 0, 0 },
	{ "mmSDMA7_RLC4_MIDCMD_DATA2", REG_MMIO, 0x02d2, 1, &mmSDMA7_RLC4_MIDCMD_DATA2[0], sizeof(mmSDMA7_RLC4_MIDCMD_DATA2)/sizeof(mmSDMA7_RLC4_MIDCMD_DATA2[0]), 0, 0 },
	{ "mmSDMA7_RLC4_MIDCMD_DATA3", REG_MMIO, 0x02d3, 1, &mmSDMA7_RLC4_MIDCMD_DATA3[0], sizeof(mmSDMA7_RLC4_MIDCMD_DATA3)/sizeof(mmSDMA7_RLC4_MIDCMD_DATA3[0]), 0, 0 },
	{ "mmSDMA7_RLC4_MIDCMD_DATA4", REG_MMIO, 0x02d4, 1, &mmSDMA7_RLC4_MIDCMD_DATA4[0], sizeof(mmSDMA7_RLC4_MIDCMD_DATA4)/sizeof(mmSDMA7_RLC4_MIDCMD_DATA4[0]), 0, 0 },
	{ "mmSDMA7_RLC4_MIDCMD_DATA5", REG_MMIO, 0x02d5, 1, &mmSDMA7_RLC4_MIDCMD_DATA5[0], sizeof(mmSDMA7_RLC4_MIDCMD_DATA5)/sizeof(mmSDMA7_RLC4_MIDCMD_DATA5[0]), 0, 0 },
	{ "mmSDMA7_RLC4_MIDCMD_DATA6", REG_MMIO, 0x02d6, 1, &mmSDMA7_RLC4_MIDCMD_DATA6[0], sizeof(mmSDMA7_RLC4_MIDCMD_DATA6)/sizeof(mmSDMA7_RLC4_MIDCMD_DATA6[0]), 0, 0 },
	{ "mmSDMA7_RLC4_MIDCMD_DATA7", REG_MMIO, 0x02d7, 1, &mmSDMA7_RLC4_MIDCMD_DATA7[0], sizeof(mmSDMA7_RLC4_MIDCMD_DATA7)/sizeof(mmSDMA7_RLC4_MIDCMD_DATA7[0]), 0, 0 },
	{ "mmSDMA7_RLC4_MIDCMD_DATA8", REG_MMIO, 0x02d8, 1, &mmSDMA7_RLC4_MIDCMD_DATA8[0], sizeof(mmSDMA7_RLC4_MIDCMD_DATA8)/sizeof(mmSDMA7_RLC4_MIDCMD_DATA8[0]), 0, 0 },
	{ "mmSDMA7_RLC4_MIDCMD_CNTL", REG_MMIO, 0x02d9, 1, &mmSDMA7_RLC4_MIDCMD_CNTL[0], sizeof(mmSDMA7_RLC4_MIDCMD_CNTL)/sizeof(mmSDMA7_RLC4_MIDCMD_CNTL[0]), 0, 0 },
	{ "mmSDMA7_RLC5_RB_CNTL", REG_MMIO, 0x02e8, 1, &mmSDMA7_RLC5_RB_CNTL[0], sizeof(mmSDMA7_RLC5_RB_CNTL)/sizeof(mmSDMA7_RLC5_RB_CNTL[0]), 0, 0 },
	{ "mmSDMA7_RLC5_RB_BASE", REG_MMIO, 0x02e9, 1, &mmSDMA7_RLC5_RB_BASE[0], sizeof(mmSDMA7_RLC5_RB_BASE)/sizeof(mmSDMA7_RLC5_RB_BASE[0]), 0, 0 },
	{ "mmSDMA7_RLC5_RB_BASE_HI", REG_MMIO, 0x02ea, 1, &mmSDMA7_RLC5_RB_BASE_HI[0], sizeof(mmSDMA7_RLC5_RB_BASE_HI)/sizeof(mmSDMA7_RLC5_RB_BASE_HI[0]), 0, 0 },
	{ "mmSDMA7_RLC5_RB_RPTR", REG_MMIO, 0x02eb, 1, &mmSDMA7_RLC5_RB_RPTR[0], sizeof(mmSDMA7_RLC5_RB_RPTR)/sizeof(mmSDMA7_RLC5_RB_RPTR[0]), 0, 0 },
	{ "mmSDMA7_RLC5_RB_RPTR_HI", REG_MMIO, 0x02ec, 1, &mmSDMA7_RLC5_RB_RPTR_HI[0], sizeof(mmSDMA7_RLC5_RB_RPTR_HI)/sizeof(mmSDMA7_RLC5_RB_RPTR_HI[0]), 0, 0 },
	{ "mmSDMA7_RLC5_RB_WPTR", REG_MMIO, 0x02ed, 1, &mmSDMA7_RLC5_RB_WPTR[0], sizeof(mmSDMA7_RLC5_RB_WPTR)/sizeof(mmSDMA7_RLC5_RB_WPTR[0]), 0, 0 },
	{ "mmSDMA7_RLC5_RB_WPTR_HI", REG_MMIO, 0x02ee, 1, &mmSDMA7_RLC5_RB_WPTR_HI[0], sizeof(mmSDMA7_RLC5_RB_WPTR_HI)/sizeof(mmSDMA7_RLC5_RB_WPTR_HI[0]), 0, 0 },
	{ "mmSDMA7_RLC5_RB_WPTR_POLL_CNTL", REG_MMIO, 0x02ef, 1, &mmSDMA7_RLC5_RB_WPTR_POLL_CNTL[0], sizeof(mmSDMA7_RLC5_RB_WPTR_POLL_CNTL)/sizeof(mmSDMA7_RLC5_RB_WPTR_POLL_CNTL[0]), 0, 0 },
	{ "mmSDMA7_RLC5_RB_RPTR_ADDR_HI", REG_MMIO, 0x02f0, 1, &mmSDMA7_RLC5_RB_RPTR_ADDR_HI[0], sizeof(mmSDMA7_RLC5_RB_RPTR_ADDR_HI)/sizeof(mmSDMA7_RLC5_RB_RPTR_ADDR_HI[0]), 0, 0 },
	{ "mmSDMA7_RLC5_RB_RPTR_ADDR_LO", REG_MMIO, 0x02f1, 1, &mmSDMA7_RLC5_RB_RPTR_ADDR_LO[0], sizeof(mmSDMA7_RLC5_RB_RPTR_ADDR_LO)/sizeof(mmSDMA7_RLC5_RB_RPTR_ADDR_LO[0]), 0, 0 },
	{ "mmSDMA7_RLC5_IB_CNTL", REG_MMIO, 0x02f2, 1, &mmSDMA7_RLC5_IB_CNTL[0], sizeof(mmSDMA7_RLC5_IB_CNTL)/sizeof(mmSDMA7_RLC5_IB_CNTL[0]), 0, 0 },
	{ "mmSDMA7_RLC5_IB_RPTR", REG_MMIO, 0x02f3, 1, &mmSDMA7_RLC5_IB_RPTR[0], sizeof(mmSDMA7_RLC5_IB_RPTR)/sizeof(mmSDMA7_RLC5_IB_RPTR[0]), 0, 0 },
	{ "mmSDMA7_RLC5_IB_OFFSET", REG_MMIO, 0x02f4, 1, &mmSDMA7_RLC5_IB_OFFSET[0], sizeof(mmSDMA7_RLC5_IB_OFFSET)/sizeof(mmSDMA7_RLC5_IB_OFFSET[0]), 0, 0 },
	{ "mmSDMA7_RLC5_IB_BASE_LO", REG_MMIO, 0x02f5, 1, &mmSDMA7_RLC5_IB_BASE_LO[0], sizeof(mmSDMA7_RLC5_IB_BASE_LO)/sizeof(mmSDMA7_RLC5_IB_BASE_LO[0]), 0, 0 },
	{ "mmSDMA7_RLC5_IB_BASE_HI", REG_MMIO, 0x02f6, 1, &mmSDMA7_RLC5_IB_BASE_HI[0], sizeof(mmSDMA7_RLC5_IB_BASE_HI)/sizeof(mmSDMA7_RLC5_IB_BASE_HI[0]), 0, 0 },
	{ "mmSDMA7_RLC5_IB_SIZE", REG_MMIO, 0x02f7, 1, &mmSDMA7_RLC5_IB_SIZE[0], sizeof(mmSDMA7_RLC5_IB_SIZE)/sizeof(mmSDMA7_RLC5_IB_SIZE[0]), 0, 0 },
	{ "mmSDMA7_RLC5_SKIP_CNTL", REG_MMIO, 0x02f8, 1, &mmSDMA7_RLC5_SKIP_CNTL[0], sizeof(mmSDMA7_RLC5_SKIP_CNTL)/sizeof(mmSDMA7_RLC5_SKIP_CNTL[0]), 0, 0 },
	{ "mmSDMA7_RLC5_CONTEXT_STATUS", REG_MMIO, 0x02f9, 1, &mmSDMA7_RLC5_CONTEXT_STATUS[0], sizeof(mmSDMA7_RLC5_CONTEXT_STATUS)/sizeof(mmSDMA7_RLC5_CONTEXT_STATUS[0]), 0, 0 },
	{ "mmSDMA7_RLC5_DOORBELL", REG_MMIO, 0x02fa, 1, &mmSDMA7_RLC5_DOORBELL[0], sizeof(mmSDMA7_RLC5_DOORBELL)/sizeof(mmSDMA7_RLC5_DOORBELL[0]), 0, 0 },
	{ "mmSDMA7_RLC5_STATUS", REG_MMIO, 0x0310, 1, &mmSDMA7_RLC5_STATUS[0], sizeof(mmSDMA7_RLC5_STATUS)/sizeof(mmSDMA7_RLC5_STATUS[0]), 0, 0 },
	{ "mmSDMA7_RLC5_DOORBELL_LOG", REG_MMIO, 0x0311, 1, &mmSDMA7_RLC5_DOORBELL_LOG[0], sizeof(mmSDMA7_RLC5_DOORBELL_LOG)/sizeof(mmSDMA7_RLC5_DOORBELL_LOG[0]), 0, 0 },
	{ "mmSDMA7_RLC5_WATERMARK", REG_MMIO, 0x0312, 1, &mmSDMA7_RLC5_WATERMARK[0], sizeof(mmSDMA7_RLC5_WATERMARK)/sizeof(mmSDMA7_RLC5_WATERMARK[0]), 0, 0 },
	{ "mmSDMA7_RLC5_DOORBELL_OFFSET", REG_MMIO, 0x0313, 1, &mmSDMA7_RLC5_DOORBELL_OFFSET[0], sizeof(mmSDMA7_RLC5_DOORBELL_OFFSET)/sizeof(mmSDMA7_RLC5_DOORBELL_OFFSET[0]), 0, 0 },
	{ "mmSDMA7_RLC5_CSA_ADDR_LO", REG_MMIO, 0x0314, 1, &mmSDMA7_RLC5_CSA_ADDR_LO[0], sizeof(mmSDMA7_RLC5_CSA_ADDR_LO)/sizeof(mmSDMA7_RLC5_CSA_ADDR_LO[0]), 0, 0 },
	{ "mmSDMA7_RLC5_CSA_ADDR_HI", REG_MMIO, 0x0315, 1, &mmSDMA7_RLC5_CSA_ADDR_HI[0], sizeof(mmSDMA7_RLC5_CSA_ADDR_HI)/sizeof(mmSDMA7_RLC5_CSA_ADDR_HI[0]), 0, 0 },
	{ "mmSDMA7_RLC5_IB_SUB_REMAIN", REG_MMIO, 0x0317, 1, &mmSDMA7_RLC5_IB_SUB_REMAIN[0], sizeof(mmSDMA7_RLC5_IB_SUB_REMAIN)/sizeof(mmSDMA7_RLC5_IB_SUB_REMAIN[0]), 0, 0 },
	{ "mmSDMA7_RLC5_PREEMPT", REG_MMIO, 0x0318, 1, &mmSDMA7_RLC5_PREEMPT[0], sizeof(mmSDMA7_RLC5_PREEMPT)/sizeof(mmSDMA7_RLC5_PREEMPT[0]), 0, 0 },
	{ "mmSDMA7_RLC5_DUMMY_REG", REG_MMIO, 0x0319, 1, &mmSDMA7_RLC5_DUMMY_REG[0], sizeof(mmSDMA7_RLC5_DUMMY_REG)/sizeof(mmSDMA7_RLC5_DUMMY_REG[0]), 0, 0 },
	{ "mmSDMA7_RLC5_RB_WPTR_POLL_ADDR_HI", REG_MMIO, 0x031a, 1, &mmSDMA7_RLC5_RB_WPTR_POLL_ADDR_HI[0], sizeof(mmSDMA7_RLC5_RB_WPTR_POLL_ADDR_HI)/sizeof(mmSDMA7_RLC5_RB_WPTR_POLL_ADDR_HI[0]), 0, 0 },
	{ "mmSDMA7_RLC5_RB_WPTR_POLL_ADDR_LO", REG_MMIO, 0x031b, 1, &mmSDMA7_RLC5_RB_WPTR_POLL_ADDR_LO[0], sizeof(mmSDMA7_RLC5_RB_WPTR_POLL_ADDR_LO)/sizeof(mmSDMA7_RLC5_RB_WPTR_POLL_ADDR_LO[0]), 0, 0 },
	{ "mmSDMA7_RLC5_RB_AQL_CNTL", REG_MMIO, 0x031c, 1, &mmSDMA7_RLC5_RB_AQL_CNTL[0], sizeof(mmSDMA7_RLC5_RB_AQL_CNTL)/sizeof(mmSDMA7_RLC5_RB_AQL_CNTL[0]), 0, 0 },
	{ "mmSDMA7_RLC5_MINOR_PTR_UPDATE", REG_MMIO, 0x031d, 1, &mmSDMA7_RLC5_MINOR_PTR_UPDATE[0], sizeof(mmSDMA7_RLC5_MINOR_PTR_UPDATE)/sizeof(mmSDMA7_RLC5_MINOR_PTR_UPDATE[0]), 0, 0 },
	{ "mmSDMA7_RLC5_MIDCMD_DATA0", REG_MMIO, 0x0328, 1, &mmSDMA7_RLC5_MIDCMD_DATA0[0], sizeof(mmSDMA7_RLC5_MIDCMD_DATA0)/sizeof(mmSDMA7_RLC5_MIDCMD_DATA0[0]), 0, 0 },
	{ "mmSDMA7_RLC5_MIDCMD_DATA1", REG_MMIO, 0x0329, 1, &mmSDMA7_RLC5_MIDCMD_DATA1[0], sizeof(mmSDMA7_RLC5_MIDCMD_DATA1)/sizeof(mmSDMA7_RLC5_MIDCMD_DATA1[0]), 0, 0 },
	{ "mmSDMA7_RLC5_MIDCMD_DATA2", REG_MMIO, 0x032a, 1, &mmSDMA7_RLC5_MIDCMD_DATA2[0], sizeof(mmSDMA7_RLC5_MIDCMD_DATA2)/sizeof(mmSDMA7_RLC5_MIDCMD_DATA2[0]), 0, 0 },
	{ "mmSDMA7_RLC5_MIDCMD_DATA3", REG_MMIO, 0x032b, 1, &mmSDMA7_RLC5_MIDCMD_DATA3[0], sizeof(mmSDMA7_RLC5_MIDCMD_DATA3)/sizeof(mmSDMA7_RLC5_MIDCMD_DATA3[0]), 0, 0 },
	{ "mmSDMA7_RLC5_MIDCMD_DATA4", REG_MMIO, 0x032c, 1, &mmSDMA7_RLC5_MIDCMD_DATA4[0], sizeof(mmSDMA7_RLC5_MIDCMD_DATA4)/sizeof(mmSDMA7_RLC5_MIDCMD_DATA4[0]), 0, 0 },
	{ "mmSDMA7_RLC5_MIDCMD_DATA5", REG_MMIO, 0x032d, 1, &mmSDMA7_RLC5_MIDCMD_DATA5[0], sizeof(mmSDMA7_RLC5_MIDCMD_DATA5)/sizeof(mmSDMA7_RLC5_MIDCMD_DATA5[0]), 0, 0 },
	{ "mmSDMA7_RLC5_MIDCMD_DATA6", REG_MMIO, 0x032e, 1, &mmSDMA7_RLC5_MIDCMD_DATA6[0], sizeof(mmSDMA7_RLC5_MIDCMD_DATA6)/sizeof(mmSDMA7_RLC5_MIDCMD_DATA6[0]), 0, 0 },
	{ "mmSDMA7_RLC5_MIDCMD_DATA7", REG_MMIO, 0x032f, 1, &mmSDMA7_RLC5_MIDCMD_DATA7[0], sizeof(mmSDMA7_RLC5_MIDCMD_DATA7)/sizeof(mmSDMA7_RLC5_MIDCMD_DATA7[0]), 0, 0 },
	{ "mmSDMA7_RLC5_MIDCMD_DATA8", REG_MMIO, 0x0330, 1, &mmSDMA7_RLC5_MIDCMD_DATA8[0], sizeof(mmSDMA7_RLC5_MIDCMD_DATA8)/sizeof(mmSDMA7_RLC5_MIDCMD_DATA8[0]), 0, 0 },
	{ "mmSDMA7_RLC5_MIDCMD_CNTL", REG_MMIO, 0x0331, 1, &mmSDMA7_RLC5_MIDCMD_CNTL[0], sizeof(mmSDMA7_RLC5_MIDCMD_CNTL)/sizeof(mmSDMA7_RLC5_MIDCMD_CNTL[0]), 0, 0 },
	{ "mmSDMA7_RLC6_RB_CNTL", REG_MMIO, 0x0340, 1, &mmSDMA7_RLC6_RB_CNTL[0], sizeof(mmSDMA7_RLC6_RB_CNTL)/sizeof(mmSDMA7_RLC6_RB_CNTL[0]), 0, 0 },
	{ "mmSDMA7_RLC6_RB_BASE", REG_MMIO, 0x0341, 1, &mmSDMA7_RLC6_RB_BASE[0], sizeof(mmSDMA7_RLC6_RB_BASE)/sizeof(mmSDMA7_RLC6_RB_BASE[0]), 0, 0 },
	{ "mmSDMA7_RLC6_RB_BASE_HI", REG_MMIO, 0x0342, 1, &mmSDMA7_RLC6_RB_BASE_HI[0], sizeof(mmSDMA7_RLC6_RB_BASE_HI)/sizeof(mmSDMA7_RLC6_RB_BASE_HI[0]), 0, 0 },
	{ "mmSDMA7_RLC6_RB_RPTR", REG_MMIO, 0x0343, 1, &mmSDMA7_RLC6_RB_RPTR[0], sizeof(mmSDMA7_RLC6_RB_RPTR)/sizeof(mmSDMA7_RLC6_RB_RPTR[0]), 0, 0 },
	{ "mmSDMA7_RLC6_RB_RPTR_HI", REG_MMIO, 0x0344, 1, &mmSDMA7_RLC6_RB_RPTR_HI[0], sizeof(mmSDMA7_RLC6_RB_RPTR_HI)/sizeof(mmSDMA7_RLC6_RB_RPTR_HI[0]), 0, 0 },
	{ "mmSDMA7_RLC6_RB_WPTR", REG_MMIO, 0x0345, 1, &mmSDMA7_RLC6_RB_WPTR[0], sizeof(mmSDMA7_RLC6_RB_WPTR)/sizeof(mmSDMA7_RLC6_RB_WPTR[0]), 0, 0 },
	{ "mmSDMA7_RLC6_RB_WPTR_HI", REG_MMIO, 0x0346, 1, &mmSDMA7_RLC6_RB_WPTR_HI[0], sizeof(mmSDMA7_RLC6_RB_WPTR_HI)/sizeof(mmSDMA7_RLC6_RB_WPTR_HI[0]), 0, 0 },
	{ "mmSDMA7_RLC6_RB_WPTR_POLL_CNTL", REG_MMIO, 0x0347, 1, &mmSDMA7_RLC6_RB_WPTR_POLL_CNTL[0], sizeof(mmSDMA7_RLC6_RB_WPTR_POLL_CNTL)/sizeof(mmSDMA7_RLC6_RB_WPTR_POLL_CNTL[0]), 0, 0 },
	{ "mmSDMA7_RLC6_RB_RPTR_ADDR_HI", REG_MMIO, 0x0348, 1, &mmSDMA7_RLC6_RB_RPTR_ADDR_HI[0], sizeof(mmSDMA7_RLC6_RB_RPTR_ADDR_HI)/sizeof(mmSDMA7_RLC6_RB_RPTR_ADDR_HI[0]), 0, 0 },
	{ "mmSDMA7_RLC6_RB_RPTR_ADDR_LO", REG_MMIO, 0x0349, 1, &mmSDMA7_RLC6_RB_RPTR_ADDR_LO[0], sizeof(mmSDMA7_RLC6_RB_RPTR_ADDR_LO)/sizeof(mmSDMA7_RLC6_RB_RPTR_ADDR_LO[0]), 0, 0 },
	{ "mmSDMA7_RLC6_IB_CNTL", REG_MMIO, 0x034a, 1, &mmSDMA7_RLC6_IB_CNTL[0], sizeof(mmSDMA7_RLC6_IB_CNTL)/sizeof(mmSDMA7_RLC6_IB_CNTL[0]), 0, 0 },
	{ "mmSDMA7_RLC6_IB_RPTR", REG_MMIO, 0x034b, 1, &mmSDMA7_RLC6_IB_RPTR[0], sizeof(mmSDMA7_RLC6_IB_RPTR)/sizeof(mmSDMA7_RLC6_IB_RPTR[0]), 0, 0 },
	{ "mmSDMA7_RLC6_IB_OFFSET", REG_MMIO, 0x034c, 1, &mmSDMA7_RLC6_IB_OFFSET[0], sizeof(mmSDMA7_RLC6_IB_OFFSET)/sizeof(mmSDMA7_RLC6_IB_OFFSET[0]), 0, 0 },
	{ "mmSDMA7_RLC6_IB_BASE_LO", REG_MMIO, 0x034d, 1, &mmSDMA7_RLC6_IB_BASE_LO[0], sizeof(mmSDMA7_RLC6_IB_BASE_LO)/sizeof(mmSDMA7_RLC6_IB_BASE_LO[0]), 0, 0 },
	{ "mmSDMA7_RLC6_IB_BASE_HI", REG_MMIO, 0x034e, 1, &mmSDMA7_RLC6_IB_BASE_HI[0], sizeof(mmSDMA7_RLC6_IB_BASE_HI)/sizeof(mmSDMA7_RLC6_IB_BASE_HI[0]), 0, 0 },
	{ "mmSDMA7_RLC6_IB_SIZE", REG_MMIO, 0x034f, 1, &mmSDMA7_RLC6_IB_SIZE[0], sizeof(mmSDMA7_RLC6_IB_SIZE)/sizeof(mmSDMA7_RLC6_IB_SIZE[0]), 0, 0 },
	{ "mmSDMA7_RLC6_SKIP_CNTL", REG_MMIO, 0x0350, 1, &mmSDMA7_RLC6_SKIP_CNTL[0], sizeof(mmSDMA7_RLC6_SKIP_CNTL)/sizeof(mmSDMA7_RLC6_SKIP_CNTL[0]), 0, 0 },
	{ "mmSDMA7_RLC6_CONTEXT_STATUS", REG_MMIO, 0x0351, 1, &mmSDMA7_RLC6_CONTEXT_STATUS[0], sizeof(mmSDMA7_RLC6_CONTEXT_STATUS)/sizeof(mmSDMA7_RLC6_CONTEXT_STATUS[0]), 0, 0 },
	{ "mmSDMA7_RLC6_DOORBELL", REG_MMIO, 0x0352, 1, &mmSDMA7_RLC6_DOORBELL[0], sizeof(mmSDMA7_RLC6_DOORBELL)/sizeof(mmSDMA7_RLC6_DOORBELL[0]), 0, 0 },
	{ "mmSDMA7_RLC6_STATUS", REG_MMIO, 0x0368, 1, &mmSDMA7_RLC6_STATUS[0], sizeof(mmSDMA7_RLC6_STATUS)/sizeof(mmSDMA7_RLC6_STATUS[0]), 0, 0 },
	{ "mmSDMA7_RLC6_DOORBELL_LOG", REG_MMIO, 0x0369, 1, &mmSDMA7_RLC6_DOORBELL_LOG[0], sizeof(mmSDMA7_RLC6_DOORBELL_LOG)/sizeof(mmSDMA7_RLC6_DOORBELL_LOG[0]), 0, 0 },
	{ "mmSDMA7_RLC6_WATERMARK", REG_MMIO, 0x036a, 1, &mmSDMA7_RLC6_WATERMARK[0], sizeof(mmSDMA7_RLC6_WATERMARK)/sizeof(mmSDMA7_RLC6_WATERMARK[0]), 0, 0 },
	{ "mmSDMA7_RLC6_DOORBELL_OFFSET", REG_MMIO, 0x036b, 1, &mmSDMA7_RLC6_DOORBELL_OFFSET[0], sizeof(mmSDMA7_RLC6_DOORBELL_OFFSET)/sizeof(mmSDMA7_RLC6_DOORBELL_OFFSET[0]), 0, 0 },
	{ "mmSDMA7_RLC6_CSA_ADDR_LO", REG_MMIO, 0x036c, 1, &mmSDMA7_RLC6_CSA_ADDR_LO[0], sizeof(mmSDMA7_RLC6_CSA_ADDR_LO)/sizeof(mmSDMA7_RLC6_CSA_ADDR_LO[0]), 0, 0 },
	{ "mmSDMA7_RLC6_CSA_ADDR_HI", REG_MMIO, 0x036d, 1, &mmSDMA7_RLC6_CSA_ADDR_HI[0], sizeof(mmSDMA7_RLC6_CSA_ADDR_HI)/sizeof(mmSDMA7_RLC6_CSA_ADDR_HI[0]), 0, 0 },
	{ "mmSDMA7_RLC6_IB_SUB_REMAIN", REG_MMIO, 0x036f, 1, &mmSDMA7_RLC6_IB_SUB_REMAIN[0], sizeof(mmSDMA7_RLC6_IB_SUB_REMAIN)/sizeof(mmSDMA7_RLC6_IB_SUB_REMAIN[0]), 0, 0 },
	{ "mmSDMA7_RLC6_PREEMPT", REG_MMIO, 0x0370, 1, &mmSDMA7_RLC6_PREEMPT[0], sizeof(mmSDMA7_RLC6_PREEMPT)/sizeof(mmSDMA7_RLC6_PREEMPT[0]), 0, 0 },
	{ "mmSDMA7_RLC6_DUMMY_REG", REG_MMIO, 0x0371, 1, &mmSDMA7_RLC6_DUMMY_REG[0], sizeof(mmSDMA7_RLC6_DUMMY_REG)/sizeof(mmSDMA7_RLC6_DUMMY_REG[0]), 0, 0 },
	{ "mmSDMA7_RLC6_RB_WPTR_POLL_ADDR_HI", REG_MMIO, 0x0372, 1, &mmSDMA7_RLC6_RB_WPTR_POLL_ADDR_HI[0], sizeof(mmSDMA7_RLC6_RB_WPTR_POLL_ADDR_HI)/sizeof(mmSDMA7_RLC6_RB_WPTR_POLL_ADDR_HI[0]), 0, 0 },
	{ "mmSDMA7_RLC6_RB_WPTR_POLL_ADDR_LO", REG_MMIO, 0x0373, 1, &mmSDMA7_RLC6_RB_WPTR_POLL_ADDR_LO[0], sizeof(mmSDMA7_RLC6_RB_WPTR_POLL_ADDR_LO)/sizeof(mmSDMA7_RLC6_RB_WPTR_POLL_ADDR_LO[0]), 0, 0 },
	{ "mmSDMA7_RLC6_RB_AQL_CNTL", REG_MMIO, 0x0374, 1, &mmSDMA7_RLC6_RB_AQL_CNTL[0], sizeof(mmSDMA7_RLC6_RB_AQL_CNTL)/sizeof(mmSDMA7_RLC6_RB_AQL_CNTL[0]), 0, 0 },
	{ "mmSDMA7_RLC6_MINOR_PTR_UPDATE", REG_MMIO, 0x0375, 1, &mmSDMA7_RLC6_MINOR_PTR_UPDATE[0], sizeof(mmSDMA7_RLC6_MINOR_PTR_UPDATE)/sizeof(mmSDMA7_RLC6_MINOR_PTR_UPDATE[0]), 0, 0 },
	{ "mmSDMA7_RLC6_MIDCMD_DATA0", REG_MMIO, 0x0380, 1, &mmSDMA7_RLC6_MIDCMD_DATA0[0], sizeof(mmSDMA7_RLC6_MIDCMD_DATA0)/sizeof(mmSDMA7_RLC6_MIDCMD_DATA0[0]), 0, 0 },
	{ "mmSDMA7_RLC6_MIDCMD_DATA1", REG_MMIO, 0x0381, 1, &mmSDMA7_RLC6_MIDCMD_DATA1[0], sizeof(mmSDMA7_RLC6_MIDCMD_DATA1)/sizeof(mmSDMA7_RLC6_MIDCMD_DATA1[0]), 0, 0 },
	{ "mmSDMA7_RLC6_MIDCMD_DATA2", REG_MMIO, 0x0382, 1, &mmSDMA7_RLC6_MIDCMD_DATA2[0], sizeof(mmSDMA7_RLC6_MIDCMD_DATA2)/sizeof(mmSDMA7_RLC6_MIDCMD_DATA2[0]), 0, 0 },
	{ "mmSDMA7_RLC6_MIDCMD_DATA3", REG_MMIO, 0x0383, 1, &mmSDMA7_RLC6_MIDCMD_DATA3[0], sizeof(mmSDMA7_RLC6_MIDCMD_DATA3)/sizeof(mmSDMA7_RLC6_MIDCMD_DATA3[0]), 0, 0 },
	{ "mmSDMA7_RLC6_MIDCMD_DATA4", REG_MMIO, 0x0384, 1, &mmSDMA7_RLC6_MIDCMD_DATA4[0], sizeof(mmSDMA7_RLC6_MIDCMD_DATA4)/sizeof(mmSDMA7_RLC6_MIDCMD_DATA4[0]), 0, 0 },
	{ "mmSDMA7_RLC6_MIDCMD_DATA5", REG_MMIO, 0x0385, 1, &mmSDMA7_RLC6_MIDCMD_DATA5[0], sizeof(mmSDMA7_RLC6_MIDCMD_DATA5)/sizeof(mmSDMA7_RLC6_MIDCMD_DATA5[0]), 0, 0 },
	{ "mmSDMA7_RLC6_MIDCMD_DATA6", REG_MMIO, 0x0386, 1, &mmSDMA7_RLC6_MIDCMD_DATA6[0], sizeof(mmSDMA7_RLC6_MIDCMD_DATA6)/sizeof(mmSDMA7_RLC6_MIDCMD_DATA6[0]), 0, 0 },
	{ "mmSDMA7_RLC6_MIDCMD_DATA7", REG_MMIO, 0x0387, 1, &mmSDMA7_RLC6_MIDCMD_DATA7[0], sizeof(mmSDMA7_RLC6_MIDCMD_DATA7)/sizeof(mmSDMA7_RLC6_MIDCMD_DATA7[0]), 0, 0 },
	{ "mmSDMA7_RLC6_MIDCMD_DATA8", REG_MMIO, 0x0388, 1, &mmSDMA7_RLC6_MIDCMD_DATA8[0], sizeof(mmSDMA7_RLC6_MIDCMD_DATA8)/sizeof(mmSDMA7_RLC6_MIDCMD_DATA8[0]), 0, 0 },
	{ "mmSDMA7_RLC6_MIDCMD_CNTL", REG_MMIO, 0x0389, 1, &mmSDMA7_RLC6_MIDCMD_CNTL[0], sizeof(mmSDMA7_RLC6_MIDCMD_CNTL)/sizeof(mmSDMA7_RLC6_MIDCMD_CNTL[0]), 0, 0 },
	{ "mmSDMA7_RLC7_RB_CNTL", REG_MMIO, 0x0398, 1, &mmSDMA7_RLC7_RB_CNTL[0], sizeof(mmSDMA7_RLC7_RB_CNTL)/sizeof(mmSDMA7_RLC7_RB_CNTL[0]), 0, 0 },
	{ "mmSDMA7_RLC7_RB_BASE", REG_MMIO, 0x0399, 1, &mmSDMA7_RLC7_RB_BASE[0], sizeof(mmSDMA7_RLC7_RB_BASE)/sizeof(mmSDMA7_RLC7_RB_BASE[0]), 0, 0 },
	{ "mmSDMA7_RLC7_RB_BASE_HI", REG_MMIO, 0x039a, 1, &mmSDMA7_RLC7_RB_BASE_HI[0], sizeof(mmSDMA7_RLC7_RB_BASE_HI)/sizeof(mmSDMA7_RLC7_RB_BASE_HI[0]), 0, 0 },
	{ "mmSDMA7_RLC7_RB_RPTR", REG_MMIO, 0x039b, 1, &mmSDMA7_RLC7_RB_RPTR[0], sizeof(mmSDMA7_RLC7_RB_RPTR)/sizeof(mmSDMA7_RLC7_RB_RPTR[0]), 0, 0 },
	{ "mmSDMA7_RLC7_RB_RPTR_HI", REG_MMIO, 0x039c, 1, &mmSDMA7_RLC7_RB_RPTR_HI[0], sizeof(mmSDMA7_RLC7_RB_RPTR_HI)/sizeof(mmSDMA7_RLC7_RB_RPTR_HI[0]), 0, 0 },
	{ "mmSDMA7_RLC7_RB_WPTR", REG_MMIO, 0x039d, 1, &mmSDMA7_RLC7_RB_WPTR[0], sizeof(mmSDMA7_RLC7_RB_WPTR)/sizeof(mmSDMA7_RLC7_RB_WPTR[0]), 0, 0 },
	{ "mmSDMA7_RLC7_RB_WPTR_HI", REG_MMIO, 0x039e, 1, &mmSDMA7_RLC7_RB_WPTR_HI[0], sizeof(mmSDMA7_RLC7_RB_WPTR_HI)/sizeof(mmSDMA7_RLC7_RB_WPTR_HI[0]), 0, 0 },
	{ "mmSDMA7_RLC7_RB_WPTR_POLL_CNTL", REG_MMIO, 0x039f, 1, &mmSDMA7_RLC7_RB_WPTR_POLL_CNTL[0], sizeof(mmSDMA7_RLC7_RB_WPTR_POLL_CNTL)/sizeof(mmSDMA7_RLC7_RB_WPTR_POLL_CNTL[0]), 0, 0 },
	{ "mmSDMA7_RLC7_RB_RPTR_ADDR_HI", REG_MMIO, 0x03a0, 1, &mmSDMA7_RLC7_RB_RPTR_ADDR_HI[0], sizeof(mmSDMA7_RLC7_RB_RPTR_ADDR_HI)/sizeof(mmSDMA7_RLC7_RB_RPTR_ADDR_HI[0]), 0, 0 },
	{ "mmSDMA7_RLC7_RB_RPTR_ADDR_LO", REG_MMIO, 0x03a1, 1, &mmSDMA7_RLC7_RB_RPTR_ADDR_LO[0], sizeof(mmSDMA7_RLC7_RB_RPTR_ADDR_LO)/sizeof(mmSDMA7_RLC7_RB_RPTR_ADDR_LO[0]), 0, 0 },
	{ "mmSDMA7_RLC7_IB_CNTL", REG_MMIO, 0x03a2, 1, &mmSDMA7_RLC7_IB_CNTL[0], sizeof(mmSDMA7_RLC7_IB_CNTL)/sizeof(mmSDMA7_RLC7_IB_CNTL[0]), 0, 0 },
	{ "mmSDMA7_RLC7_IB_RPTR", REG_MMIO, 0x03a3, 1, &mmSDMA7_RLC7_IB_RPTR[0], sizeof(mmSDMA7_RLC7_IB_RPTR)/sizeof(mmSDMA7_RLC7_IB_RPTR[0]), 0, 0 },
	{ "mmSDMA7_RLC7_IB_OFFSET", REG_MMIO, 0x03a4, 1, &mmSDMA7_RLC7_IB_OFFSET[0], sizeof(mmSDMA7_RLC7_IB_OFFSET)/sizeof(mmSDMA7_RLC7_IB_OFFSET[0]), 0, 0 },
	{ "mmSDMA7_RLC7_IB_BASE_LO", REG_MMIO, 0x03a5, 1, &mmSDMA7_RLC7_IB_BASE_LO[0], sizeof(mmSDMA7_RLC7_IB_BASE_LO)/sizeof(mmSDMA7_RLC7_IB_BASE_LO[0]), 0, 0 },
	{ "mmSDMA7_RLC7_IB_BASE_HI", REG_MMIO, 0x03a6, 1, &mmSDMA7_RLC7_IB_BASE_HI[0], sizeof(mmSDMA7_RLC7_IB_BASE_HI)/sizeof(mmSDMA7_RLC7_IB_BASE_HI[0]), 0, 0 },
	{ "mmSDMA7_RLC7_IB_SIZE", REG_MMIO, 0x03a7, 1, &mmSDMA7_RLC7_IB_SIZE[0], sizeof(mmSDMA7_RLC7_IB_SIZE)/sizeof(mmSDMA7_RLC7_IB_SIZE[0]), 0, 0 },
	{ "mmSDMA7_RLC7_SKIP_CNTL", REG_MMIO, 0x03a8, 1, &mmSDMA7_RLC7_SKIP_CNTL[0], sizeof(mmSDMA7_RLC7_SKIP_CNTL)/sizeof(mmSDMA7_RLC7_SKIP_CNTL[0]), 0, 0 },
	{ "mmSDMA7_RLC7_CONTEXT_STATUS", REG_MMIO, 0x03a9, 1, &mmSDMA7_RLC7_CONTEXT_STATUS[0], sizeof(mmSDMA7_RLC7_CONTEXT_STATUS)/sizeof(mmSDMA7_RLC7_CONTEXT_STATUS[0]), 0, 0 },
	{ "mmSDMA7_RLC7_DOORBELL", REG_MMIO, 0x03aa, 1, &mmSDMA7_RLC7_DOORBELL[0], sizeof(mmSDMA7_RLC7_DOORBELL)/sizeof(mmSDMA7_RLC7_DOORBELL[0]), 0, 0 },
	{ "mmSDMA7_RLC7_STATUS", REG_MMIO, 0x03c0, 1, &mmSDMA7_RLC7_STATUS[0], sizeof(mmSDMA7_RLC7_STATUS)/sizeof(mmSDMA7_RLC7_STATUS[0]), 0, 0 },
	{ "mmSDMA7_RLC7_DOORBELL_LOG", REG_MMIO, 0x03c1, 1, &mmSDMA7_RLC7_DOORBELL_LOG[0], sizeof(mmSDMA7_RLC7_DOORBELL_LOG)/sizeof(mmSDMA7_RLC7_DOORBELL_LOG[0]), 0, 0 },
	{ "mmSDMA7_RLC7_WATERMARK", REG_MMIO, 0x03c2, 1, &mmSDMA7_RLC7_WATERMARK[0], sizeof(mmSDMA7_RLC7_WATERMARK)/sizeof(mmSDMA7_RLC7_WATERMARK[0]), 0, 0 },
	{ "mmSDMA7_RLC7_DOORBELL_OFFSET", REG_MMIO, 0x03c3, 1, &mmSDMA7_RLC7_DOORBELL_OFFSET[0], sizeof(mmSDMA7_RLC7_DOORBELL_OFFSET)/sizeof(mmSDMA7_RLC7_DOORBELL_OFFSET[0]), 0, 0 },
	{ "mmSDMA7_RLC7_CSA_ADDR_LO", REG_MMIO, 0x03c4, 1, &mmSDMA7_RLC7_CSA_ADDR_LO[0], sizeof(mmSDMA7_RLC7_CSA_ADDR_LO)/sizeof(mmSDMA7_RLC7_CSA_ADDR_LO[0]), 0, 0 },
	{ "mmSDMA7_RLC7_CSA_ADDR_HI", REG_MMIO, 0x03c5, 1, &mmSDMA7_RLC7_CSA_ADDR_HI[0], sizeof(mmSDMA7_RLC7_CSA_ADDR_HI)/sizeof(mmSDMA7_RLC7_CSA_ADDR_HI[0]), 0, 0 },
	{ "mmSDMA7_RLC7_IB_SUB_REMAIN", REG_MMIO, 0x03c7, 1, &mmSDMA7_RLC7_IB_SUB_REMAIN[0], sizeof(mmSDMA7_RLC7_IB_SUB_REMAIN)/sizeof(mmSDMA7_RLC7_IB_SUB_REMAIN[0]), 0, 0 },
	{ "mmSDMA7_RLC7_PREEMPT", REG_MMIO, 0x03c8, 1, &mmSDMA7_RLC7_PREEMPT[0], sizeof(mmSDMA7_RLC7_PREEMPT)/sizeof(mmSDMA7_RLC7_PREEMPT[0]), 0, 0 },
	{ "mmSDMA7_RLC7_DUMMY_REG", REG_MMIO, 0x03c9, 1, &mmSDMA7_RLC7_DUMMY_REG[0], sizeof(mmSDMA7_RLC7_DUMMY_REG)/sizeof(mmSDMA7_RLC7_DUMMY_REG[0]), 0, 0 },
	{ "mmSDMA7_RLC7_RB_WPTR_POLL_ADDR_HI", REG_MMIO, 0x03ca, 1, &mmSDMA7_RLC7_RB_WPTR_POLL_ADDR_HI[0], sizeof(mmSDMA7_RLC7_RB_WPTR_POLL_ADDR_HI)/sizeof(mmSDMA7_RLC7_RB_WPTR_POLL_ADDR_HI[0]), 0, 0 },
	{ "mmSDMA7_RLC7_RB_WPTR_POLL_ADDR_LO", REG_MMIO, 0x03cb, 1, &mmSDMA7_RLC7_RB_WPTR_POLL_ADDR_LO[0], sizeof(mmSDMA7_RLC7_RB_WPTR_POLL_ADDR_LO)/sizeof(mmSDMA7_RLC7_RB_WPTR_POLL_ADDR_LO[0]), 0, 0 },
	{ "mmSDMA7_RLC7_RB_AQL_CNTL", REG_MMIO, 0x03cc, 1, &mmSDMA7_RLC7_RB_AQL_CNTL[0], sizeof(mmSDMA7_RLC7_RB_AQL_CNTL)/sizeof(mmSDMA7_RLC7_RB_AQL_CNTL[0]), 0, 0 },
	{ "mmSDMA7_RLC7_MINOR_PTR_UPDATE", REG_MMIO, 0x03cd, 1, &mmSDMA7_RLC7_MINOR_PTR_UPDATE[0], sizeof(mmSDMA7_RLC7_MINOR_PTR_UPDATE)/sizeof(mmSDMA7_RLC7_MINOR_PTR_UPDATE[0]), 0, 0 },
	{ "mmSDMA7_RLC7_MIDCMD_DATA0", REG_MMIO, 0x03d8, 1, &mmSDMA7_RLC7_MIDCMD_DATA0[0], sizeof(mmSDMA7_RLC7_MIDCMD_DATA0)/sizeof(mmSDMA7_RLC7_MIDCMD_DATA0[0]), 0, 0 },
	{ "mmSDMA7_RLC7_MIDCMD_DATA1", REG_MMIO, 0x03d9, 1, &mmSDMA7_RLC7_MIDCMD_DATA1[0], sizeof(mmSDMA7_RLC7_MIDCMD_DATA1)/sizeof(mmSDMA7_RLC7_MIDCMD_DATA1[0]), 0, 0 },
	{ "mmSDMA7_RLC7_MIDCMD_DATA2", REG_MMIO, 0x03da, 1, &mmSDMA7_RLC7_MIDCMD_DATA2[0], sizeof(mmSDMA7_RLC7_MIDCMD_DATA2)/sizeof(mmSDMA7_RLC7_MIDCMD_DATA2[0]), 0, 0 },
	{ "mmSDMA7_RLC7_MIDCMD_DATA3", REG_MMIO, 0x03db, 1, &mmSDMA7_RLC7_MIDCMD_DATA3[0], sizeof(mmSDMA7_RLC7_MIDCMD_DATA3)/sizeof(mmSDMA7_RLC7_MIDCMD_DATA3[0]), 0, 0 },
	{ "mmSDMA7_RLC7_MIDCMD_DATA4", REG_MMIO, 0x03dc, 1, &mmSDMA7_RLC7_MIDCMD_DATA4[0], sizeof(mmSDMA7_RLC7_MIDCMD_DATA4)/sizeof(mmSDMA7_RLC7_MIDCMD_DATA4[0]), 0, 0 },
	{ "mmSDMA7_RLC7_MIDCMD_DATA5", REG_MMIO, 0x03dd, 1, &mmSDMA7_RLC7_MIDCMD_DATA5[0], sizeof(mmSDMA7_RLC7_MIDCMD_DATA5)/sizeof(mmSDMA7_RLC7_MIDCMD_DATA5[0]), 0, 0 },
	{ "mmSDMA7_RLC7_MIDCMD_DATA6", REG_MMIO, 0x03de, 1, &mmSDMA7_RLC7_MIDCMD_DATA6[0], sizeof(mmSDMA7_RLC7_MIDCMD_DATA6)/sizeof(mmSDMA7_RLC7_MIDCMD_DATA6[0]), 0, 0 },
	{ "mmSDMA7_RLC7_MIDCMD_DATA7", REG_MMIO, 0x03df, 1, &mmSDMA7_RLC7_MIDCMD_DATA7[0], sizeof(mmSDMA7_RLC7_MIDCMD_DATA7)/sizeof(mmSDMA7_RLC7_MIDCMD_DATA7[0]), 0, 0 },
	{ "mmSDMA7_RLC7_MIDCMD_DATA8", REG_MMIO, 0x03e0, 1, &mmSDMA7_RLC7_MIDCMD_DATA8[0], sizeof(mmSDMA7_RLC7_MIDCMD_DATA8)/sizeof(mmSDMA7_RLC7_MIDCMD_DATA8[0]), 0, 0 },
	{ "mmSDMA7_RLC7_MIDCMD_CNTL", REG_MMIO, 0x03e1, 1, &mmSDMA7_RLC7_MIDCMD_CNTL[0], sizeof(mmSDMA7_RLC7_MIDCMD_CNTL)/sizeof(mmSDMA7_RLC7_MIDCMD_CNTL[0]), 0, 0 },
